[
{
  "model": "baseapp.food",
  "pk": 1,
  "fields": {
    "business": 1,
    "name": "1-pc. Chickenjoy (Value Meal)",
    "pic": "food_pic/jollibee/jollibee/jollibee-chickenjoy-1pc.jpg",
    "price": 96.8,
    "tag": "fried,chicken,seasoned,steamed,rice,value-meal,jollibee,pinoy,gravy,one-piece,cheap",
    "desc": "The Best Fried Chicken! Crispylicious, Juicylicious! Jollibee's perfectly seasoned fried chicken that's crispy on the outside; tender and juicy on the inside."
  }
},
{
  "model": "baseapp.food",
  "pk": 2,
  "fields": {
    "business": 1,
    "name": "6-pc. Chickenjoy Bucket",
    "pic": "food_pic/jollibee/jollibee/jollibee-bucket.png",
    "price": 407.0,
    "tag": "bucket,fried,chicken,seasoned,jollibee,gravy,pinoy",
    "desc": "The Best Fried Chicken! Crispylicious, Juicylicious! Now in a bucket!"
  }
},
{
  "model": "baseapp.food",
  "pk": 3,
  "fields": {
    "business": 1,
    "name": "2-pc. Chickenjoy (Value Meal)",
    "pic": "food_pic/jollibee/jollibee-chickenjoy-2pcs.jpg",
    "price": 180.4,
    "tag": "fried,chicken,seasoned,value-meal,jollibee,gravy,pinoy,two-piece",
    "desc": "The Best Fried Chicken! Crispylicious, Juicylicious! Jollibee's perfectly seasoned fried chicken that's crispy on the outside; tender and juicy on the inside."
  }
},
{
  "model": "baseapp.food",
  "pk": 4,
  "fields": {
    "business": 1,
    "name": "1-pc. Chickenjoy with Palabok (Value Meal)",
    "pic": "food_pic/jollibee/jollibee-chickenjoy-palabok.jpg",
    "price": 170.5,
    "tag": "fried,chicken,seasoned,value-meal,pasta,palabok,jollibee,gravy,pinoy",
    "desc": "Your favorite Chickenjoy can also be enjoyed with the classic Palabok Fiesta. Two favorites in one meal!"
  }
},
{
  "model": "baseapp.food",
  "pk": 5,
  "fields": {
    "business": 1,
    "name": "Jolly Spaghetti with Yum  (Value Meal)",
    "pic": "food_pic/jollibee/jollibee-spag-yum.jpg",
    "price": 99.0,
    "tag": "pasta,spaghetti,burger,noodles,value-meal,sweet,beef,cheesy,sauce,jollibee,pinoy,cheap,snack",
    "desc": "Your favorite Jollibee Spaghetti %u2013 sweet-style spaghetti sauce with premium noodles topped with chunky slices of savory ham and sausages and lots of cheese %u2013 goes well with the juicy, langhap-sarap Jollibee Yum made with 100% pure beef."
  }
},
{
  "model": "baseapp.food",
  "pk": 6,
  "fields": {
    "business": 1,
    "name": "1-pc. Burger Steak (Solo)",
    "pic": "food_pic/jollibee/jollibee-burgersteak.jpg",
    "price": 55.0,
    "tag": "burger,burger-steak,beef,mushroom,gravy,sauce,rice,steamed,solo,jollibee,pinoy,cheap",
    "desc": "100% pure beef YUM patty topped with flavorful mushroom gravy and mushroom slices. Served with steamed rice."
  }
},
{
  "model": "baseapp.food",
  "pk": 7,
  "fields": {
    "business": 1,
    "name": "Champ (Solo)",
    "pic": "food_pic/jollibee/jollibee-champ.jpg",
    "price": 152.9,
    "tag": "burger,beef,tomato,crispy,lettuce,cheesy,solo,jollibee,pinoy,snack",
    "desc": "Made with 1/3 pound, 100% pure beef Champ patty, garnished with fresh tomato, crisp lettuce, sliced cheese, catsup and mayo dressing, served on a soft sesame seed bun."
  }
},
{
  "model": "baseapp.food",
  "pk": 8,
  "fields": {
    "business": 1,
    "name": "Cheesy Bacon Mushroom Champ (Value Meal)",
    "pic": "food_pic/jollibee/jollibee-cheezy-bacon-mushroom",
    "price": 103.5,
    "tag": "cheesy,bacon,mushroom,fried,burger,beef,big,crispy,sauce,value-meal,jollibee,pinoy,snack",
    "desc": "Made with 1/3 pound, 100% pure beef Champ patty, topped with crispy bacon strips, mushrooms and creamy cheese sauce, all in a soft sesame seed bun."
  }
},
{
  "model": "baseapp.food",
  "pk": 9,
  "fields": {
    "business": 1,
    "name": "Big Burger Steak Supreme with Egg (Solo)",
    "pic": "food_pic/jollibee/jollibee-burgersteak-supreme.jpg",
    "price": 165.0,
    "tag": "big,burger,burger-steak,egg,supreme,beef,fries,deep-fried,mushroom,gravy,steamed,rice,solo,jollibee,pinoy",
    "desc": "1/3 pound CHAMP patty, served with tasty fries, poured over with mushroom gravy and topped with toasted garlic bits and mushroom slices. Served with sunny side egg on top of steamed rice."
  }
},
{
  "model": "baseapp.food",
  "pk": 10,
  "fields": {
    "business": 1,
    "name": "Halo-Halo Sundae",
    "pic": "food_pic/jollibee/jollibee-halohalo-sundae",
    "price": 44.0,
    "tag": "ice-cream,halo-halo,cold,ube,nata de coco,coconut,milk,toppings,jollibee,pinoy,cheap,snack",
    "desc": "Imagine your fave halo-halo toppings such as nata de coco, ube syrup, and macapuno in your ice-cream sundae?"
  }
},
{
  "model": "baseapp.food",
  "pk": 11,
  "fields": {
    "business": 1,
    "name": "1-pc. Burger Steak with 3-pc. Shanghai Rolls f (Solo)",
    "pic": "food_pic/jollibee/jollibee-burgersteak-shanghai.jpg",
    "price": 93.5,
    "tag": "burger,burger-steak,beef,mushroom,gravy,sauce,rice,steamed,solo,lumpia,shanghai-rolls,jollibee,pinoy,cheap,one-piece",
    "desc": "A combination of two of Jollibee%u2019s signature rice meals %u2013 Burger Steak with 3-pieces of Shanghai Rolls. Served with steamed rice."
  }
},
{
  "model": "baseapp.food",
  "pk": 12,
  "fields": {
    "business": 1,
    "name": "1-pc. Chickenjoy (Value Meal with Creamy Macaroni Soup)",
    "pic": "food_pic/jollibee/jollibee-chickenjoy-macaroni-soup.png",
    "price": 115.5,
    "tag": "fried,chicken,seasoned,value-meal,creamy,pasta,macaroni,soup,jollibee,pinoy,gravy,one-piece",
    "desc": "The Best Fried Chicken! Crispylicious, Juicylicious! Jollibee's perfectly seasoned fried chicken that's crispy on the outside; tender and juicy on the inside."
  }
},
{
  "model": "baseapp.food",
  "pk": 13,
  "fields": {
    "business": 1,
    "name": "Cheesy Classic Jolly Hotdog  (Solo)",
    "pic": "food_pic/jollibee/jollibee-jolly-hotdog.jpg",
    "price": 55.0,
    "tag": "cheesy,hotdog,sandwich,solo,jollibee,pinoy,cheap,snack",
    "desc": "Mildly seasoned all-meat hotdog in a warm hotdog roll, garnished with a slightly tangy, cheese-based topping and livened up with grated cheese and tomato catsup."
  }
},
{
  "model": "baseapp.food",
  "pk": 14,
  "fields": {
    "business": 1,
    "name": "5-pc. Shanghai Rolls (Value Meal)",
    "pic": "food_pic/jollibee/jollibee-5pcs-shanghai.jpg",
    "price": 88.0,
    "tag": "lumpia,shangai-rolls,fried,sweet-and-sour,sauce,rice,steamed,value-meal,cheap,jollibee,chinese",
    "desc": "5 pieces of your favorite crispy-sarap shanghai rolls which comes with sweet and sour sauce. Served with steamed rice."
  }
},
{
  "model": "baseapp.food",
  "pk": 15,
  "fields": {
    "business": 1,
    "name": "1-pc. Chickenjoy with Palabok (Solo)",
    "pic": "food_pic/jollibee/jollibee-chickenjoy-palabok.jpg",
    "price": 161.7,
    "tag": "fried,chicken,seasoned,solo,pasta,noodles,palabok,jollibee,gravy,pinoy,one-piece",
    "desc": "Your favorite Chickenjoy can also be enjoyed with the classic Palabok Fiesta. Two favorites in one meal!"
  }
},
{
  "model": "baseapp.food",
  "pk": 16,
  "fields": {
    "business": 1,
    "name": "Pie Tuna",
    "pic": "food_pic/jollibee/jollibee-tuna-pie.jpg",
    "price": 49.5,
    "tag": "pie,snack,tuna,fried,jollibee,cheap,snack,pinoy",
    "desc": "Tuna Pie"
  }
},
{
  "model": "baseapp.food",
  "pk": 17,
  "fields": {
    "business": 1,
    "name": "Yum Burger with TLC (Solo)",
    "pic": "food_pic/jollibee/jollibee-yum-tlc.jpg",
    "price": 82.5,
    "tag": "burger,beef,tomato,lettuce,cheesy,solo,jollibee,pinoy,cheap,snack",
    "desc": "Your favorite Yum patty topped with a fresh tomato slice, crisp lettuce, sliced cheese and mayo dressing, served on a soft sesame seed bun."
  }
},
{
  "model": "baseapp.food",
  "pk": 18,
  "fields": {
    "business": 1,
    "name": "Garlic Pepper Beef (Solo)",
    "pic": "food_pic/jollibee/jollibee-garlic-beef.jpg",
    "price": 83.6,
    "tag": "juicy,garlic,pepper,beef,solo,steamed,rice,sauce,jollibee,cheap,pinoy",
    "desc": "Juicy beef strips, topped with flavorful pepper sauce and garlic bits. Served with steamed rice."
  }
},
{
  "model": "baseapp.food",
  "pk": 19,
  "fields": {
    "business": 1,
    "name": "Cheesy Bacon Mushroom Champ (Solo)",
    "pic": "food_pic/jollibee/jollibee-cheezy-bacon-mushroom",
    "price": 160.6,
    "tag": "cheesy,bacon,mushroom,fried,burger,beef,big,crispy,sauce,solo,jollibee,pinoy,snack",
    "desc": "Made with 1/3 pound, 100% pure beef Champ patty, topped with crispy bacon strips, mushrooms and creamy cheese sauce, all in a soft sesame seed bun."
  }
},
{
  "model": "baseapp.food",
  "pk": 20,
  "fields": {
    "business": 1,
    "name": "Big Burger Steak Supreme with Egg (Value Meal)",
    "pic": "food_pic/jollibee/jollibee-ultimate-burgersteak.jpg",
    "price": 176.0,
    "tag": "big,burger,burger-steak,egg,supreme,beef,fries,deep-fried,mushroom,gravy,steamed,rice,value-meal,jollibee,pinoy",
    "desc": "1/3 pound CHAMP patty, served with tasty fries, poured over with mushroom gravy and topped with toasted garlic bits and mushroom slices. Served with sunny side egg on top of steamed rice."
  }
},
{
  "model": "baseapp.food",
  "pk": 21,
  "fields": {
    "business": 1,
    "name": "Burger Steak Supreme (Value Meal)",
    "pic": "food_pic/jollibee/jollibee-burgersteak-supreme.jpg",
    "price": 101.2,
    "tag": "burger,burger-steak,supreme,beef,fries,deep-fried,mushroom,gravy,steamed,rice,value-meal,jollibee,pinoy",
    "desc": "100% Pure Beef Yum Patty served with tasty fries, poured over with mushroom gravy and topped with toasted garlic bits and mushroom slices. Served with sunny side egg on top of steamed rice."
  }
},
{
  "model": "baseapp.food",
  "pk": 22,
  "fields": {
    "business": 1,
    "name": "1-pc. Chickenjoy with Jolly Spaghetti (Value Meal)",
    "pic": "food_pic/jollibee/jollibee-chickenjoy-spag.jpg",
    "price": 127.6,
    "tag": "fried,chicken,seasoned,pasta,noodles,spaghetti,cheesy,value-meal,jollibee,pinoy,snack,gravy,one-piece",
    "desc": "Crispylicious, juicylicious Chickenjoy paired with the tastiest and meatiest Jollibee Spaghetti. Two favorites in one meal!"
  }
},
{
  "model": "baseapp.food",
  "pk": 23,
  "fields": {
    "business": 1,
    "name": "Jolly Spaghetti with Yum Cheese Burger",
    "pic": "food_pic/jollibee/jollibee-spag-cheeseburger.jpg",
    "price": 112.2,
    "tag": "pasta,noodles,spaghetti,cheesy,burger,beef,jollibee,pinoy,snack",
    "desc": "Jollibee\u2019s sweet style spaghetti sauce-now the tastiest and meatiest ever from Jollibee! Now with the the tastiest Yum with Cheese!"
  }
},
{
  "model": "baseapp.food",
  "pk": 24,
  "fields": {
    "business": 1,
    "name": "1-pc. Burger Steak with 3-pc. Shanghai Rolls (Value Meal)",
    "pic": "food_pic/jollibee/jollibee-burgersteak-shanghai.jpg",
    "price": 101.2,
    "tag": "burger,burger-steak,beef,mushroom,gravy,sauce,rice,steamed,value-meal,lumpia,shanghai-rolls,jollibee,pinoy,chinese,one-piece",
    "desc": "A combination of two of Jollibee%u2019s signature rice meals %u2013 Burger Steak with 3-pieces of Shanghai Rolls. Served with steamed rice."
  }
},
{
  "model": "baseapp.food",
  "pk": 25,
  "fields": {
    "business": 1,
    "name": "Palabok Fiesta (Solo)",
    "pic": "food_pic/jollibee/jollibee-palabok.jpg",
    "price": 99.0,
    "tag": "pasta,noodles,palabok,sauce,pork,solo,shrimp,egg,jollibee,pinoy,snack,cheap",
    "desc": "Premium bihon noodles served with a special palabok sauce and toppings of pork chicharon bits, sauteed pork, shrimps, and slices of egg."
  }
},
{
  "model": "baseapp.food",
  "pk": 26,
  "fields": {
    "business": 1,
    "name": "2-pc. Chickenjoy (Solo)",
    "pic": "food_pic/jollibee/jollibee-chickenjoy-2pcs.jpg",
    "price": 165.0,
    "tag": "fried,chicken,seasoned,steamed,rice,solo,jollibee,pinoy,gravy,two-piece",
    "desc": "The Best Fried Chicken! Crispylicious, Juicylicious! Jollibee's perfectly seasoned fried chicken that's crispy on the outside; tender and juicy on the inside."
  }
},
{
  "model": "baseapp.food",
  "pk": 27,
  "fields": {
    "business": 1,
    "name": "Yum Cheese Burger (Solo)",
    "pic": "food_pic/jollibee/jollibee-cheeseburger.jpg",
    "price": 49.5,
    "tag": "burger,cheesy,beef,solo,jollibee,cheap,snack,pinoy",
    "desc": "Your favorite Yum patty topped with our special burger dressing and sliced cheese, served on a soft bun."
  }
},
{
  "model": "baseapp.food",
  "pk": 28,
  "fields": {
    "business": 1,
    "name": "Yum Cheese Burger (Super Value Meal)",
    "pic": "food_pic/jollibee/jollibee-cheeseburger.jpg",
    "price": 99.0,
    "tag": "burger,cheesy,beef,super-value-meal,jollibee,pinoy,cheap,snack",
    "desc": "Your favorite Yum patty topped with our special burger dressing and sliced cheese, served on a soft bun."
  }
},
{
  "model": "baseapp.food",
  "pk": 29,
  "fields": {
    "business": 1,
    "name": "Chocolate Sundae",
    "pic": "food_pic/jollibee/jollibee-chocolate-sundae.jpg",
    "price": 33.0,
    "tag": "chocolate,ice-cream,sweet,cold,jollibee,pinoy,snack,cheap",
    "desc": "Creamy soft serve topped with luxurious chocolate fudge"
  }
},
{
  "model": "baseapp.food",
  "pk": 30,
  "fields": {
    "business": 1,
    "name": "Jolly Crispy Fries",
    "pic": "food_pic/jollibee/jollibee-crispy-fries.png",
    "price": 41.8,
    "tag": "deep-fried,fries,crispy,potato,jollibee,pinoy,cheap,snack",
    "desc": "Light to golden brown crispy potato strips, made from choice potatoes."
  }
},
{
  "model": "baseapp.food",
  "pk": 31,
  "fields": {
    "business": 1,
    "name": "Jolly Spaghetti (Solo)",
    "pic": "food_pic/jollibee/jollibee-spag.jpg",
    "price": 55.0,
    "tag": "noodles,pasta,spaghetti,sauce,meaty,solo,jollibee,pinoy,cheap,snack",
    "desc": "Jollibee's sweet style spaghetti sauce-- now the tastiest and meatiest ever from Jollibee! With the chunkiest slices of savory ham and sausages, loaded with ground beef, served over premium quality noodles and topped with lots of cheese. Jollibee Spaghetti - the Spaghettiest!"
  }
},
{
  "model": "baseapp.food",
  "pk": 32,
  "fields": {
    "business": 1,
    "name": "Yum (Value Meal)",
    "pic": "food_pic/jollibee/jollibee-yum.jpg",
    "price": 60.5,
    "tag": "burger,beef,value-meal,jollibee,pinoy,cheap,snack",
    "desc": "Your favorite Yum patty topped with our special burger dressing, served on a soft bun."
  }
},
{
  "model": "baseapp.food",
  "pk": 33,
  "fields": {
    "business": 1,
    "name": "Yum (Super Value Meal)",
    "pic": "food_pic/jollibee/jollibee-yum.jpg",
    "price": 88.0,
    "tag": "burger,beef,super-value-meal,jollibee,pinoy,cheap,snack",
    "desc": "Your favorite Yum patty topped with our special burger dressing, served on a soft bun."
  }
},
{
  "model": "baseapp.food",
  "pk": 34,
  "fields": {
    "business": 1,
    "name": "Yum Cheese Burger (Value Meal)",
    "pic": "food_pic/jollibee/jollibee-cheeseburger.jpg",
    "price": 73.7,
    "tag": "burger,cheesy,beef,value-meal,jollibee,pinoy,cheap,snack",
    "desc": "Your favorite Yum patty topped with our special burger dressing and sliced cheese, served on a soft bun."
  }
},
{
  "model": "baseapp.food",
  "pk": 35,
  "fields": {
    "business": 1,
    "name": "1-pc. Chickenjoy with Jolly Spaghetti (Solo)",
    "pic": "food_pic/jollibee/jollibee-chickenjoy-spag.jpg",
    "price": 108.9,
    "tag": "fried,chicken,seasoned,pasta,noodles,spaghetti,cheesy,solo,jollibee,pinoy,snack,gravy,one-piece",
    "desc": "Crispylicious, juicylicious Chickenjoy paired with the tastiest and meatiest Jollibee Spaghetti. Two favorites in one meal!"
  }
},
{
  "model": "baseapp.food",
  "pk": 36,
  "fields": {
    "business": 1,
    "name": "2-pcs. Burger Steak (Value Meal)",
    "pic": "food_pic/jollibee/jollibee-burgersteak-2pcs.jpg",
    "price": 104.5,
    "tag": "burger,burger-steak,mushroom,gravy,steamed,rice,value-meal,jollibee,two-piece,pinoy",
    "desc": "100% pure beef YUM patty topped with flavorful mushroom gravy and mushroom slices. Served with steamed rice."
  }
},
{
  "model": "baseapp.food",
  "pk": 37,
  "fields": {
    "business": 1,
    "name": "1-pc. Burger Steak (Value Meal)",
    "pic": "food_pic/jollibee/jollibee-burgersteak.jpg",
    "price": 66.0,
    "tag": "burger,burger-steak,mushroom,gravy,steamed,rice,value-meal,jollibee,pinoy,one-piece",
    "desc": "100% pure beef YUM patty topped with flavorful mushroom gravy and mushroom slices. Served with steamed rice."
  }
},
{
  "model": "baseapp.food",
  "pk": 38,
  "fields": {
    "business": 1,
    "name": "5-pc. Shanghai Rolls (Solo)",
    "pic": "food_pic/jollibee/jollibee-5pcs-shanghai.jpg",
    "price": 77.0,
    "tag": "lumpia,shangai-rolls,fried,sweet-and-sour,sauce,rice,steamed,solo,jollibee,chinese,cheap",
    "desc": "5 pieces of your favorite crispy-sarap shanghai rolls which comes with sweet and sour sauce. Served with steamed rice."
  }
},
{
  "model": "baseapp.food",
  "pk": 39,
  "fields": {
    "business": 1,
    "name": "Garlic Pepper Beef (Value Meal)",
    "pic": "food_pic/jollibee/jollibee-garlic-beef.jpg",
    "price": 94.6,
    "tag": "juicy,garlic,pepper,beef,value-meal,steamed,rice,sauce,jollibee,pinoy,cheap",
    "desc": "Juicy beef strips, topped with flavorful pepper sauce and garlic bits. Served with steamed rice."
  }
},
{
  "model": "baseapp.food",
  "pk": 40,
  "fields": {
    "business": 1,
    "name": "8-pc. Chickenjoy Bucket",
    "pic": "food_pic/jollibee/jollibee-bucket.jpg",
    "price": 533.5,
    "tag": "bucket,fried,chicken,seasoned,jollibee,pinoy",
    "desc": "The Best Fried Chicken! Crispylicious, Juicylicious! Now in a bucket!"
  }
},
{
  "model": "baseapp.food",
  "pk": 41,
  "fields": {
    "business": 1,
    "name": "Big Burger Steak (Value Meal)",
    "pic": "food_pic/jollibee/jollibee-ultimate-burgersteak.jpg",
    "price": 143.0,
    "tag": "big,burger,burger-steak,supreme,beef,fries,deep-fried,mushroom,gravy,steamed,rice,value-meal,jollibee,pinoy",
    "desc": "1/3 pound CHAMP patty, topped with flavorful mushroom gravy and mushroom slices. Served with steamed rice."
  }
},
{
  "model": "baseapp.food",
  "pk": 42,
  "fields": {
    "business": 1,
    "name": "Burger Steak Supreme (Solo)",
    "pic": "food_pic/jollibee/jollibee-burgersteak-supreme.jpg",
    "price": 93.5,
    "tag": "burger,burger-steak,supreme,beef,fries,deep-fried,mushroom,gravy,steamed,rice,solo,jollibee,pinoy,cheap",
    "desc": "100% Pure Beef Yum Patty served with tasty fries, poured over with mushroom gravy and topped with toasted garlic bits and mushroom slices. Served with sunny side egg on top of steamed rice."
  }
},
{
  "model": "baseapp.food",
  "pk": 43,
  "fields": {
    "business": 1,
    "name": "Cheesy Bacon Mushroom Yum (Solo)",
    "pic": "food_pic/jollibee/jollibee-cheezy-bacon-mushroom-yum.jpg",
    "price": 93.5,
    "tag": "cheesy,bacon,mushroom,fried,burger,beef,big,crispy,sauce,solo,jollibee,pinoy,snack,cheap",
    "desc": "Your favorite Yum patty topped with crispy bacon strips, mushrooms and creamy cheese sauce, served on a soft sesame seed bun."
  }
},
{
  "model": "baseapp.food",
  "pk": 44,
  "fields": {
    "business": 1,
    "name": "Big Burger Steak (Solo)",
    "pic": "food_pic/jollibee/jollibee-ultimate-burgersteak.jpg",
    "price": 132.0,
    "tag": "big,burger,burger-steak,supreme,beef,fries,deep-fried,mushroom,gravy,steamed,rice,solo,jollibee,pinoy",
    "desc": "1/3 pound CHAMP patty, topped with flavorful mushroom gravy and mushroom slices. Served with steamed rice."
  }
},
{
  "model": "baseapp.food",
  "pk": 45,
  "fields": {
    "business": 1,
    "name": "Ube Pie",
    "pic": "food_pic/jollibee/jollibee-ube-pie.jpg",
    "price": 31.9,
    "tag": "pie,ube,snack,fried,hot,jollibee,pinoy,cheap",
    "desc": "Ube Pie"
  }
},
{
  "model": "baseapp.food",
  "pk": 46,
  "fields": {
    "business": 1,
    "name": "2-pcs. Burger Steak (Solo)",
    "pic": "food_pic/jollibee/jollibee-burgersteak-2pcs.jpg",
    "price": 93.5,
    "tag": "burger,burger-steak,mushroom,gravy,steamed,rice,solo,jollibee,two-piece,cheap,pinoy",
    "desc": "100% pure beef YUM patty topped with flavorful mushroom gravy and mushroom slices. Served with steamed rice."
  }
},
{
  "model": "baseapp.food",
  "pk": 47,
  "fields": {
    "business": 1,
    "name": "Cheesy Classic Jolly Hotdog  (Value Meal)",
    "pic": "food_pic/jollibee/jollibee-jolly-hotdog.jpg",
    "price": 86.9,
    "tag": "cheesy,hotdog,sandwich,value-meal,jollibee,pinoy,cheap,snack",
    "desc": "Mildly seasoned all-meat hotdog in a warm hotdog roll, garnished with a slightly tangy, cheese-based topping and livened up with grated cheese and tomato catsup."
  }
},
{
  "model": "baseapp.food",
  "pk": 48,
  "fields": {
    "business": 1,
    "name": "Jolly Spaghetti (Value Meal)",
    "pic": "food_pic/jollibee/jollibee-spag.jpg",
    "price": 66.0,
    "tag": "noodles,pasta,spaghetti,sauce,meaty,value-meal,jollibee,pinoy,cheap,snack",
    "desc": "Jollibee's sweet style spaghetti sauce-- now the tastiest and meatiest ever from Jollibee! With the chunkiest slices of savory ham and sausages, loaded with ground beef, served over premium quality noodles and topped with lots of cheese. Jollibee Spaghetti - the Spaghettiest!"
  }
},
{
  "model": "baseapp.food",
  "pk": 49,
  "fields": {
    "business": 1,
    "name": "Yum Burger with TLC (Super Value Meal)",
    "pic": "food_pic/jollibee/jollibee-yum-tlc.jpg",
    "price": 123.2,
    "tag": "burger,beef,tomato,lettuce,cheesy,value-meal,jollibee.pinoy,snack",
    "desc": "Your favorite Yum patty topped with a fresh tomato slice, crisp lettuce, sliced cheese and mayo dressing, served on a soft sesame seed bun."
  }
},
{
  "model": "baseapp.food",
  "pk": 50,
  "fields": {
    "business": 1,
    "name": "Yum (Solo)",
    "pic": "food_pic/jollibee/jollibee-yum.jpg",
    "price": 36.3,
    "tag": "burger,beef,solo,jollibee,pinoy,snack,cheap",
    "desc": "Your favorite Yum patty topped with our special burger dressing, served on a soft bun."
  }
},
{
  "model": "baseapp.food",
  "pk": 51,
  "fields": {
    "business": 1,
    "name": "Jollibee Wasabi Fries",
    "pic": "food_pic/jollibee/jollibee-wasabi-fries.jpg",
    "price": 46.2,
    "tag": "deep-fried,fries,crispy,potato,spicy,wasabi,jollibee,japanese,cheap,snack",
    "desc": "Crispy and flavorful, with a wasabi kick!"
  }
},
{
  "model": "baseapp.food",
  "pk": 52,
  "fields": {
    "business": 1,
    "name": "Palabok Fiesta (Value Meal)",
    "pic": "food_pic/jollibee/jollibee-palabok.jpg",
    "price": 110.0,
    "tag": "pasta,noodles,palabok,sauce,pork,value-meal,shrimp,egg,jollibee,snack,pinoy",
    "desc": "Premium bihon noodles served with a special palabok sauce and toppings of pork chicharon bits, sauteed pork, shrimps, and slices of egg."
  }
},
{
  "model": "baseapp.food",
  "pk": 53,
  "fields": {
    "business": 1,
    "name": "1-pc. Chickenjoy (Solo)",
    "pic": "food_pic/jollibee/jollibee-chickenjoy-1pc.jpg",
    "price": 82.5,
    "tag": "fried,chicken,seasoned,steamed,rice,solo,jollibee,pinoy,one-piece,gravy",
    "desc": "The Best Fried Chicken! Crispylicious, Juicylicious! Jollibee's perfectly seasoned fried chicken that's crispy on the outside; tender and juicy on the inside."
  }
},
{
  "model": "baseapp.food",
  "pk": 54,
  "fields": {
    "business": 2,
    "name": "Chinese-Style Pork Chop",
    "pic": "food_pic/chowking/chowking-chinese-pork-chop.jpg",
    "price": 109.0,
    "tag": "pork,fried,deep-fried,tasty,chinese,chowking,chinese,pork-chop",
    "desc": "Chinese-Style Pork Chop"
  }
},
{
  "model": "baseapp.food",
  "pk": 55,
  "fields": {
    "business": 2,
    "name": "Sweet & Sour Pork with Choco Pao Combo",
    "pic": "food_pic/chowking/chowking-sweet-and-sour-pork-choco-pao.jpg",
    "price": 149.0,
    "tag": "pork,fried,sweet,sour,vegetables,sweet-and-sour,chocolate,siopao,chocolatey,chowking",
    "desc": "Sweet & Sour Pork with Choco Pao Combo"
  }
},
{
  "model": "baseapp.food",
  "pk": 56,
  "fields": {
    "business": 2,
    "name": "Sweet and Sour Fish",
    "pic": "food_pic/chowking/chowking-sweet-and-sour-fish.jpg",
    "price": 109.0,
    "tag": "sweet,fried,sour,sweet-and-sour,fish,vegetables,chowking",
    "desc": "Sweet and Sour Fish"
  }
},
{
  "model": "baseapp.food",
  "pk": 57,
  "fields": {
    "business": 2,
    "name": "Halo-Halo Small w/ Ice Cream",
    "pic": "food_pic/chowking/chowking-halohalo-small-icecream.jpg",
    "price": 161.0,
    "tag": "sweet,ice-cream,halo-halo,tasty,cold,sugary,dessert,chowking,snack",
    "desc": "Halo-Halo Small w/ Ice Cream"
  }
},
{
  "model": "baseapp.food",
  "pk": 58,
  "fields": {
    "business": 2,
    "name": "Lomi and Chunky Asado Siopao Regular with Regular Drink",
    "pic": "food_pic/chowking/chowking-lomi-asado-siopao.jpg",
    "price": 147.0,
    "tag": "lomi,siopao,asado,noodles,chunky,hot,savoury,chinese,chowking",
    "desc": "lLomi and Chunky Asado Siopao Regular with Regular Drink"
  }
},
{
  "model": "baseapp.food",
  "pk": 59,
  "fields": {
    "business": 2,
    "name": "Lumpiang Shanghai",
    "pic": "food_pic/chowking/chowking-lumpiang-shanghai.jpg",
    "price": 55.0,
    "tag": "shanghai,fried,chinese,pork,grounded,shrimp,vegetables,spices,sweet,sour,sweet-and-sour,chinese,chowking,snack,cheap",
    "desc": "Ground pork, ground shrimp, minced onion, minced carrots, spices, sweet and sour sauce"
  }
},
{
  "model": "baseapp.food",
  "pk": 60,
  "fields": {
    "business": 2,
    "name": "Fried Pork Dumplings",
    "pic": "food_pic/chowking/chowking-dumplings.jpg",
    "price": 55.0,
    "tag": "dumpling,fried,pork,deep-fried,chinese,chowking,snack,cheap",
    "desc": "Fried Pork Dumplings"
  }
},
{
  "model": "baseapp.food",
  "pk": 61,
  "fields": {
    "business": 2,
    "name": "Beef Wonton Mami and Chunky Asado Siopao Regular with Regular Drink",
    "pic": "food_pic/chowking/chowking-beef-mami-siopao.png",
    "price": 191.0,
    "tag": "beef,noodle,mami,asado,chunky,hot,savoury,chinese,chowking",
    "desc": "Beef Wonton Mami and Chunky Asado Siopao Regular with Regular Drink"
  }
},
{
  "model": "baseapp.food",
  "pk": 62,
  "fields": {
    "business": 2,
    "name": "Chowking Milk Tea",
    "pic": "food_pic/chowking/chowking-milk-tea.jpg",
    "price": 68.0,
    "tag": "milk,tea,milk tea,cold,drink,sweet,dessert,chowking,snack,cheap",
    "desc": "An ice-cold sweet beverage that is light brown in color, has a light creamy mouth feel and slightly bitter taste characteristic of black tea, complemented by the slightly gummy texture of black tapioca pearls"
  }
},
{
  "model": "baseapp.food",
  "pk": 63,
  "fields": {
    "business": 2,
    "name": "Wonton Mami Large",
    "pic": "food_pic/chowking/chowking-wonton-mami-large.png",
    "price": 94.0,
    "tag": "wonton,mami,hot,savoury,chowking,snack,cheap",
    "desc": "lorem ipsum dolor sit amet futa"
  }
},
{
  "model": "baseapp.food",
  "pk": 64,
  "fields": {
    "business": 2,
    "name": "Halo-Halo Large",
    "pic": "food_pic/chowking/chowking-halohalo-large.jpg",
    "price": 101.0,
    "tag": "halo-halo,sweet,cold,dessert,chowking,snack",
    "desc": "Halo-Halo Large"
  }
},
{
  "model": "baseapp.food",
  "pk": 65,
  "fields": {
    "business": 2,
    "name": "Chinese-Style Fried Chicken with Choco Pao Combo",
    "pic": "food_pic/chowking/chowking-chinese-fried-chicken-choco-pao.png",
    "price": 123.0,
    "tag": "chicken,fried,deep-fried,siopao,choco,chocolaty,rice,grainy,chinese,chowking",
    "desc": "Chinese-Style Fried Chicken with Choco Pao Combo"
  }
},
{
  "model": "baseapp.food",
  "pk": 66,
  "fields": {
    "business": 2,
    "name": "Buchi Lotus",
    "pic": "food_pic/chowking/chowking-buchi-lotus.jpg",
    "price": 39.0,
    "tag": "dessert,rice,bean,chowking,snack,cheap",
    "desc": "Glutinous rice, mung bean paste, sesame seeds, brown sugar"
  }
},
{
  "model": "baseapp.food",
  "pk": 67,
  "fields": {
    "business": 2,
    "name": "Pancit Canton and Chunky Asado Siopao Regular with Regular Drink",
    "pic": "food_pic/chowking/chowking-pancit-canton-siopao.jpg",
    "price": 125.0,
    "tag": "canton,noodle,asado,siopao,chunky,chinese,chowking",
    "desc": "Pancit Canton and Chunky Asado Siopao Regular with Regular Drink"
  }
},
{
  "model": "baseapp.food",
  "pk": 68,
  "fields": {
    "business": 2,
    "name": "Halo-Halo Regular",
    "pic": "food_pic/chowking/chowking-halohalo-regular.png",
    "price": 72.0,
    "tag": "halo-halo,sweet,cold,dessert,chowking,snack,cheap",
    "desc": "Halo-Halo Regular"
  }
},
{
  "model": "baseapp.food",
  "pk": 69,
  "fields": {
    "business": 2,
    "name": "Halo-Halo Regular w/ Ice Cream",
    "pic": "food_pic/chowking/chowking-halohalo-regular-icecream.png",
    "price": 83.0,
    "tag": "sweet,ice-cream,halo-halo,tasty,cold,sugary,dessert,chowking,snack,cheap",
    "desc": "Halo-Halo Regular w/ Ice Cream"
  }
},
{
  "model": "baseapp.food",
  "pk": 70,
  "fields": {
    "business": 2,
    "name": "Pork Chaofan",
    "pic": "food_pic/chowking/chowking-pork-chao-fan.png",
    "price": 54.0,
    "tag": "pork,stir-fried,fried,rice,vegetables,tasty,chinese,egg,chowking",
    "desc": "Moist light brown stir-fried rice mixed with visible pork meat bits with yellow egg bits and freshly blanched cutgreen kangkong stalks/leaves"
  }
},
{
  "model": "baseapp.food",
  "pk": 71,
  "fields": {
    "business": 2,
    "name": "Tofu",
    "pic": "food_pic/chowking/chowking-tofu.png",
    "price": 52.0,
    "tag": "tofu,firm,satly,tangy,salty-tangy,chowking,chinese,snack,cheap",
    "desc": "Firm tofu, red onion bits, salty-tangy sauce"
  }
},
{
  "model": "baseapp.food",
  "pk": 72,
  "fields": {
    "business": 2,
    "name": "Chinese-Style Fried Chicken with 2pcs Buchi",
    "pic": "food_pic/chowking/chowking-chinese-fried-chicken-buchi.jpg",
    "price": 123.0,
    "tag": "dessert,rice,bean,chicken,fried,deep-fried,rice,grainy,chinese,chowking",
    "desc": "Chinese-Style Fried Chicken with 2pcs Buchi"
  }
},
{
  "model": "baseapp.food",
  "pk": 73,
  "fields": {
    "business": 2,
    "name": "Yangchow with Fried Dumplings",
    "pic": "food_pic/chowking/chowking-yangchow-dumplings.jpg",
    "price": 112.0,
    "tag": "tasty,flavorful,stir-fried,fried,rice,grainy,dumpling,deep-fried,shrimp,vegetables,saut\u00e9ed,chinese,chowking",
    "desc": "Tasty, flavorful, light yellow moist stir-fried rice, saut\u00e9ed with chorizo bits, ham bits, egg, and fresh andcrisp vegetables; topped with saut\u00e9ed shrimp."
  }
},
{
  "model": "baseapp.food",
  "pk": 74,
  "fields": {
    "business": 2,
    "name": "Beef Chao Fan with Fried Dumplings",
    "pic": "food_pic/chowking/chowking-beef-chao-fan-dumplings.jpg",
    "price": 105.0,
    "tag": "beef,fried,stir-fried,deep-fried,vegetables,rice,chinese,dumpling,saut\u00e9ed,grainy,tasty,flavorful,chowking",
    "desc": "Moist light brown stir-fried rice mixed with visible beef meat bits with yellow egg bits, light green to green square cabbage and orange carrot bits"
  }
},
{
  "model": "baseapp.food",
  "pk": 75,
  "fields": {
    "business": 2,
    "name": "Paos-To-Go (3 pcs.)",
    "pic": "food_pic/chowking/chowking-paos-to-go.jpg",
    "price": 109.0,
    "tag": "siopao,choco,chocolate,chocolatey,chowking,snack",
    "desc": "Paos-To-Go (3 pcs.)"
  }
},
{
  "model": "baseapp.food",
  "pk": 76,
  "fields": {
    "business": 2,
    "name": "Beef Chaofan",
    "pic": "food_pic/chowking/chowking-beef-chao-fan.png",
    "price": 66.0,
    "tag": "beef,chaofan,stir-fried,fried,vegetables,tasty,savoury,hot,flavorful,chinese,chowking,cheap",
    "desc": "Moist light brown stir-fried rice mixed with visible beef meat bits with yellow egg bits, light green to green square cabbage and orange carrot bits"
  }
},
{
  "model": "baseapp.food",
  "pk": 77,
  "fields": {
    "business": 2,
    "name": "Wonton Mami Regular",
    "pic": "food_pic/chowking/chowking-wonton-mami-regular.png",
    "price": 65.0,
    "tag": "wonton,mami,tasty,savoury,hot,chinese,chowking,snack,cheap",
    "desc": "lorem ipsum dolor sit amet futa"
  }
},
{
  "model": "baseapp.food",
  "pk": 78,
  "fields": {
    "business": 2,
    "name": "Pork Siomai Chao Fan",
    "pic": "food_pic/chowking/chowking-pork-chao-fan-siomai.jpg",
    "price": 94.0,
    "tag": "pork,chaofan,stir-fried,fried,deep-fried,vegetables,chinese,hot,siomai,chinese,chowking,cheap",
    "desc": "Moist light brown stir-fried rice mixed with visible pork meat bits with yellow egg bits and freshly blanched cutgreen kangkong stalks/leaves  with 4 pcs. Siomai"
  }
},
{
  "model": "baseapp.food",
  "pk": 79,
  "fields": {
    "business": 2,
    "name": "Sweet & Sour Fish with Choco Pao",
    "pic": "food_pic/chowking/chowking-sweet-and-sour-fish-choco-pao.jpg",
    "price": 149.0,
    "tag": "sweet,sour,fish,fried,hot,siopao,chocolate,sweet-and-sour,tasty,flavorful,chinese,chowking",
    "desc": "Sweet & Sour Fish with Choco Pao"
  }
},
{
  "model": "baseapp.food",
  "pk": 80,
  "fields": {
    "business": 2,
    "name": "Chinese-Style Pork Chop Lauriat",
    "pic": "food_pic/chowking/chowking-chinese-pork-chop-lauriat.jpg",
    "price": 178.0,
    "tag": "siomai,fried,pork,saucy,tasty,flavorful,rice,grainy,canton,deep-fried,chicharapi,buchi,hot,chinese,chowking",
    "desc": "Pork chop, special sauce, pancit canton, pork siomai, chicharap, buchi"
  }
},
{
  "model": "baseapp.food",
  "pk": 81,
  "fields": {
    "business": 2,
    "name": "Wanton Mami and Chunky Asado Siopao Regular with Regular Drink",
    "pic": "food_pic/chowking/chowking-wonton-mami-siopao.jpg",
    "price": 109.0,
    "tag": "wanton,mami,siopai,asado,chuncky,hot,flavorful,tasty,savoury,chinese,chowking",
    "desc": "Wanton Mami and Chunky Asado Siopao Regular with Regular Drink"
  }
},
{
  "model": "baseapp.food",
  "pk": 82,
  "fields": {
    "business": 2,
    "name": "Chicharap",
    "pic": "food_pic/chowking/chowking-chicharap.png",
    "price": 52.0,
    "tag": "chicharap,crunchy,satly,chowking,snack,cheap",
    "desc": "Prawn chips"
  }
},
{
  "model": "baseapp.food",
  "pk": 83,
  "fields": {
    "business": 2,
    "name": "Choco Pao",
    "pic": "food_pic/chowking/chowking-choco-pao.jpg",
    "price": 39.0,
    "tag": "siopao,choco,chocolate,chocolaty,chowking,snack,cheap",
    "desc": "Steamed bun, melted chocolate"
  }
},
{
  "model": "baseapp.food",
  "pk": 84,
  "fields": {
    "business": 2,
    "name": "Lumpiang Shanghai Lauriat",
    "pic": "food_pic/chowking/chowking-lumpiang-shanghai-lauriat.jpg",
    "price": 167.0,
    "tag": "lumpia,shanghai,pork,canton,noodle,chicharap,buchi,rice,grainy,tasty,flavorful,chinese,hot,siomai,fried,deep-fried,chowking",
    "desc": "Lumpiang shanghai, pancit canton, pork siomai, chicharap, buchi"
  }
},
{
  "model": "baseapp.food",
  "pk": 85,
  "fields": {
    "business": 2,
    "name": "Beef Mami and Chunky Asado Siopao Regular with Regular Drink",
    "pic": "food_pic/chowking/chowking-beef-wonton-mami-siopao.png",
    "price": 180.0,
    "tag": "beef,mami,chuncky,siopao,asado,savoury,tasty,flavorful,chinese,hot,chowking",
    "desc": "Beef Mami and Chunky Asado Siopao Regular with Regular Drink"
  }
},
{
  "model": "baseapp.food",
  "pk": 86,
  "fields": {
    "business": 2,
    "name": "Pork Chaofan with Fried Lumpiang Shanghai",
    "pic": "food_pic/chowking/chowking-pork-chao-fan-lumpia.jpg",
    "price": 94.0,
    "tag": "pork,stir-fried,vegetables,hot,fried,lumpia,shanghai,shrimp,chinese,chaofan,tasty,flavorful,rice,grainy,chowking,cheap",
    "desc": "Pork Chaofan with Fried Lumpiang Shanghai"
  }
},
{
  "model": "baseapp.food",
  "pk": 87,
  "fields": {
    "business": 2,
    "name": "Pork Chaofan with Fried Dumplings",
    "pic": "food_pic/chowking/chowking-pork-chao-fan-dumpling.jpg",
    "price": 94.0,
    "tag": "chaofan,dumpling,pork,fried,deep-fried,stir-fried,rice,grainy,vegetables,hot,chinese,chowking,cheap",
    "desc": "Pork Chaofan with Fried Dumplings"
  }
},
{
  "model": "baseapp.food",
  "pk": 88,
  "fields": {
    "business": 2,
    "name": "Lumpiang Shanghai Lauriat",
    "pic": "food_pic/chowking/chowking-lumpiang-shanghai-lauriat.jpg",
    "price": 167.0,
    "tag": "lumpia,shanghai,canton,noodle,siomai,pork,fried,deep-fried,chicharap,buchi,hot,tasty,flavorful,chinese,rice,chowking,snack",
    "desc": "Lumpiang shanghai, pancit canton, pork siomai, chicharap, buchi"
  }
},
{
  "model": "baseapp.food",
  "pk": 89,
  "fields": {
    "business": 2,
    "name": "Pancit Canton & Chinese-Style Fried Chicken with Regular Drink (Combo)",
    "pic": "food_pic/chowking/chowking-pancit-canton-chinese-fried-chicken.png",
    "price": 153.0,
    "tag": "chicken,fried,canton,noodle,tasty,rice,grainy,chinese,deep-fried,chowking",
    "desc": "Pancit Canton & Chinese-Style Fried Chicken with Regular Drink (Combo)"
  }
},
{
  "model": "baseapp.food",
  "pk": 90,
  "fields": {
    "business": 2,
    "name": "Beef Chao Fan with Siomai",
    "pic": "food_pic/chowking/chowking-beef-chao-fan-siomai.jpg",
    "price": 105.0,
    "tag": "beef,chaofan,siomai,pork,rice,fried,vegetables,tasty,flavorful,egg,chinese,grainy,hot,chowking",
    "desc": "Beef, yellow egg bits, water spinach, fried rice, pork siomai"
  }
},
{
  "model": "baseapp.food",
  "pk": 91,
  "fields": {
    "business": 2,
    "name": "Siomai Mami",
    "pic": "food_pic/chowking/chowking-siomai-mami.jpg",
    "price": 76.0,
    "tag": "siomai,mami,noodle,hot,steamed,tasty,flavorful,satly,savoury,chowking,cheap, snack",
    "desc": "Siomai Mami"
  }
},
{
  "model": "baseapp.food",
  "pk": 92,
  "fields": {
    "business": 2,
    "name": "Chinese-Style Fried Chicken (2-pc.)",
    "pic": "food_pic/chowking/chowking-chinese-fried-chicken-2pcs.jpg",
    "price": 160.0,
    "tag": "rice,chicken,fried,deep-fried,rice,grainy,chinese,chowking.two-piece",
    "desc": "2 pcs. Chinese Style Fried Chicken with Rice"
  }
},
{
  "model": "baseapp.food",
  "pk": 93,
  "fields": {
    "business": 2,
    "name": "Chinese-Style Fried Chicken Lauriat",
    "pic": "food_pic/chowking/chowking-chinese-fried-chicken-lauriat.png",
    "price": 178.0,
    "tag": "siomai,fried,pork,chicken,saucy,tasty,flavorful,rice,grainy,canton,deep-fried,chicharapi,buchi,hot,chinese,chowking",
    "desc": "Fried chicken, pancit canton, pork siomai, chicharap, buchi"
  }
},
{
  "model": "baseapp.food",
  "pk": 94,
  "fields": {
    "business": 2,
    "name": "Siomai",
    "pic": "food_pic/chowking/chowking-siomai.png",
    "price": 55.0,
    "tag": "ground,pork,beef,spices,siomai,sauce,steamed,fried,deep-fried,chinese,chowking,snack,cheap",
    "desc": "Ground pork/beef, spices, siomai skin, soy sauce, chili sauce, calamansi"
  }
},
{
  "model": "baseapp.food",
  "pk": 95,
  "fields": {
    "business": 2,
    "name": "Chinese-Style Fried Chicken with Lumpiang Shanghai Combo",
    "pic": "food_pic/chowking/chowking-chinese-fried-chicken-lumpia.jpg",
    "price": 123.0,
    "tag": "chicken,fried,rice,shanghai,chinese,lumpia,chinese,grainy,hot,tasty,flavorful,saucy,chowking",
    "desc": "Chinese-Style Fried Chicken with Lumpiang Shanghai Combo"
  }
},
{
  "model": "baseapp.food",
  "pk": 96,
  "fields": {
    "business": 2,
    "name": "Chinese-Style Fried Chicken with Wonton Soup Combo",
    "pic": "food_pic/chowking/chowking-chinese-fried-chicken-wonton-soup.png",
    "price": 123.0,
    "tag": "chicken,fried,rice,wonton,chinese,soup,chinese,grainy,hot,tasty,flavorful,noodle,chowking",
    "desc": "Chinese-Style Fried Chicken with Wonton Soup Combo"
  }
},
{
  "model": "baseapp.food",
  "pk": 97,
  "fields": {
    "business": 2,
    "name": "Beef Chao Fan with Fried Lumpiang Shanghai",
    "pic": "food_pic/chowking/chowking-beef-chao-fan-lumpia.jpg",
    "price": 105.0,
    "tag": "beef,stir-fried,vegetables,hot,fried,lumpia,shanghai,shrimp,chinese,chaofan,tasty,flavorful,rice,grainy,chowking",
    "desc": "Moist light brown stir-fried rice mixed with visible beef meat bits with yellow egg bits, light green to green square cabbage and orange carrot bits"
  }
},
{
  "model": "baseapp.food",
  "pk": 98,
  "fields": {
    "business": 2,
    "name": "Bola Bola Siopao",
    "pic": "food_pic/chowking/chowking-bolabola-siopao.jpg",
    "price": 52.0,
    "tag": "bola-bola,siopao,chinese,tasty,chowking,snack,cheap",
    "desc": "Pulled pork, steamed meat bun"
  }
},
{
  "model": "baseapp.food",
  "pk": 99,
  "fields": {
    "business": 2,
    "name": "Sweet and Sour Pork",
    "pic": "food_pic/chowking/chowking-sweet-and-sour-pork.jpg",
    "price": 109.0,
    "tag": "sweet,fried,sour,sweet-and-sour,pork,vegetables,hot,chinese,chowking",
    "desc": "Deep-fried pork slices, sweet and sour sauce, green bell pepper, red onions, pineapple chunks, fried rice"
  }
},
{
  "model": "baseapp.food",
  "pk": 100,
  "fields": {
    "business": 2,
    "name": "Lomi",
    "pic": "food_pic/chowking/chowking-lomi.png",
    "price": 99.0,
    "tag": "lomi,noodle,broth,vegetables,hot,tasty,flavorful,egg,savoury,chowking,snack,cheap",
    "desc": "Meat, vegetables, noodles, egg, broth"
  }
},
{
  "model": "baseapp.food",
  "pk": 101,
  "fields": {
    "business": 2,
    "name": "Yangchow with Pork Siomai",
    "pic": "food_pic/chowking/chowking-yangchow-siomai.jpg",
    "price": 116.0,
    "tag": "yangchow,fried,stir-fried,pork,siomai,chinese,shrimp,steamed,rice,tasty,flavorful,chaofan,chowking",
    "desc": "Yangchow with Pork Siomai"
  }
},
{
  "model": "baseapp.food",
  "pk": 102,
  "fields": {
    "business": 2,
    "name": "Beef Wonton Mami",
    "pic": "food_pic/chowking/chowking-beef-wonton-mami.jpg",
    "price": 143.0,
    "tag": "beef,wonton,noodle,hot,flavorful,savoury,soup,broth,chinese,chowking",
    "desc": "A sumptuous beef noodle soup, served with flavorful premium cut beef cubes with a generous amount of mildly  flavored, right to the bite noodles, immersed in a rich creamy beef soup, served with freshly cut taiwan pechay, garnished with leeks"
  }
},
{
  "model": "baseapp.food",
  "pk": 103,
  "fields": {
    "business": 2,
    "name": "Sweet and Sour Pork Lauriat",
    "pic": "food_pic/chowking/chowking-sweet-and-sour-pork-lauriat.jpg",
    "price": 167.0,
    "tag": "sweet,sour,fried,sweet-and-sour,pork,canton,noodle,rice,chicharap,buchi,grainy,egg,hot,tasty,chinese,chowking",
    "desc": "Pork, sweet and sour sauce, pancit, egg fried rice, chicharap, buchi"
  }
},
{
  "model": "baseapp.food",
  "pk": 104,
  "fields": {
    "business": 2,
    "name": "Beef Mami",
    "pic": "food_pic/chowking/chowking-beef-mami.jpg",
    "price": 132.0,
    "tag": "beef,mami,noodle,flavorful,hot,savoury,soup,broth,chinese,chowking,snack",
    "desc": "Beef Mami"
  }
},
{
  "model": "baseapp.food",
  "pk": 105,
  "fields": {
    "business": 2,
    "name": "Yangchow with Fried Lumpiang Shanghai",
    "pic": "food_pic/chowking/chowking-yangchow-lumpia.jpg",
    "price": 112.0,
    "tag": "tasty,fried,shirmp,lumpia,shanghai,tasty,flavorful,rice,stir-fried,hot,vegetables,chaofan,chinese,chowking",
    "desc": "Tasty, flavorful, light yellow moist stir-fried rice, saut\u00e9ed with chorizo bits, ham bits, egg, and fresh andcrisp vegetables; topped with saut\u00e9ed shrimp."
  }
},
{
  "model": "baseapp.food",
  "pk": 106,
  "fields": {
    "business": 2,
    "name": "Chopsuey",
    "pic": "food_pic/chowking/chowking-chopsuey.jpg",
    "price": 109.0,
    "tag": "chopsuey,vegetables,snack,chinese,chowking",
    "desc": "Chopsuey"
  }
},
{
  "model": "baseapp.food",
  "pk": 107,
  "fields": {
    "business": 2,
    "name": "Yang Chow Chao Fan",
    "pic": "food_pic/chowking/chowking-yangchow.jpg",
    "price": 77.0,
    "tag": "yangchow,chaofan,shrimp,rice,grainy,tasty,hot,chinese,chowking,cheap",
    "desc": "Tasty, flavorful, light yellow moist stir-fried rice, saut\u00e9ed with chorizo bits, ham bits, egg, and fresh andcrisp vegetables; topped with saut\u00e9ed shrimp."
  }
},
{
  "model": "baseapp.food",
  "pk": 108,
  "fields": {
    "business": 2,
    "name": "Pancit Canton",
    "pic": "food_pic/chowking/chowking-pancit-canton.png",
    "price": 68.0,
    "tag": "canton,noodle,tasty,chinese,chowking,snack,cheap",
    "desc": "Chicken strips, chicken balls, shrimps, canton noodles, cabbage, carrots, spring onion, dark brown canton sauce"
  }
},
{
  "model": "baseapp.food",
  "pk": 109,
  "fields": {
    "business": 2,
    "name": "Plain Rice",
    "pic": "food_pic/mcdonalds/mcdo-plain-rice.jpg",
    "price": 20.0,
    "tag": "steamed,rice,grainy,hot,cheap",
    "desc": "Plain rice"
  }
},
{
  "model": "baseapp.food",
  "pk": 110,
  "fields": {
    "business": 3,
    "name": "Shake Shake Fries 'N Float",
    "pic": "food_pic/mcdonalds/mcdo-shake-fries-float.png",
    "price": 205.0,
    "tag": "fried,sweet,hot,cold,crispy,salty,sweet,potato,mcdo,mcdonalds,snack",
    "desc": "Yummy fries with oh so yummy float."
  }
},
{
  "model": "baseapp.food",
  "pk": 111,
  "fields": {
    "business": 3,
    "name": "BFF Shake Shake Fries Cheese A la Carte",
    "pic": "food_pic/mcdonalds/mcdo-bff-shake-fries-cheese.jpg",
    "price": 142.0,
    "tag": "fried,hot,crispy,salty,sour,potato,mcdo,mcdonalds,snack",
    "desc": "Yummy fries only without drinks."
  }
},
{
  "model": "baseapp.food",
  "pk": 112,
  "fields": {
    "business": 3,
    "name": "Big Mac Value Meal",
    "pic": "food_pic/mcdonalds/mcdo-big-mac.png",
    "price": 180.0,
    "tag": "hot,grilled,sweet,burger,patty,bun,value-meal,mcdo,mcdonalds,snack",
    "desc": "Value yummy burger."
  }
},
{
  "model": "baseapp.food",
  "pk": 113,
  "fields": {
    "business": 3,
    "name": "1 pc. Spicy Chicken McDo Value Meal",
    "pic": "food_pic/mcdonalds/mcdo-spicy-chicken-meal.png",
    "price": 99.0,
    "tag": "fried,spicy,hot,crispy,salty,gravy,value-meal,chicken,mcdo,mcdonalds,one-piece,rice,cheap",
    "desc": "Spicy McDo style fried chicken. Crispy, crunchy and yummy!"
  }
},
{
  "model": "baseapp.food",
  "pk": 114,
  "fields": {
    "business": 3,
    "name": "1 pc. Spicy Chicken McDo with Sundae Value Meal",
    "pic": "food_pic/mcdonalds/mcdo-spicy-chicken-meal-fries-float.png",
    "price": 129.0,
    "tag": "fried,spicy,hot,crispy,salty,gravy,ice-cream,sweet,cold,rice,chicken,sundae,value-meal,mcdo,mcdonalds",
    "desc": "Spicy McDo style fried chicken. Crispy, crunchy and yummy! With additional sundae for sweetness!"
  }
},
{
  "model": "baseapp.food",
  "pk": 115,
  "fields": {
    "business": 3,
    "name": "Fish & Fries",
    "pic": "food_pic/mcdonalds/mcdo-fish-and-fries.jpg",
    "price": 153.0,
    "tag": "fried,spicy,hot,crispy,salty,gravy,fish,fries,mcdo,mcdonalds,snack",
    "desc": "Same great McDo taste but now with fish!"
  }
},
{
  "model": "baseapp.food",
  "pk": 116,
  "fields": {
    "business": 3,
    "name": "Sweet Soy Chicken Value Meal",
    "pic": "food_pic/mcdonalds/mcdo-sweet-soy-chicken-meal.png",
    "price": 167.0,
    "tag": "fried,sweet,hot,crispy,salty,soy,value-meal,chicken,mcdo,mcdonalds,rice",
    "desc": "McDo style fried chicken now in sweet soy sauce! Sweet and sour crunchy chicken!"
  }
},
{
  "model": "baseapp.food",
  "pk": 117,
  "fields": {
    "business": 3,
    "name": "2 pc. Spicy Chicken McDo Value Meal",
    "pic": "food_pic/mcdonalds/mcdo-2pcs-spicy-chicken-meal.jpg",
    "price": 172.0,
    "tag": "fried,sweet,spicy,hot,crispy,salty,value-meal,chicken,mcdo,mcdonalds,rice,two-piece",
    "desc": "Spicy McDo style fried chicken. Crispy, crunchy and yummy! Double the chicken, double the fun!"
  }
},
{
  "model": "baseapp.food",
  "pk": 118,
  "fields": {
    "business": 3,
    "name": "6pcs McNuggets",
    "pic": "food_pic/mcdonalds/mcdo-6pc-nuggets.png",
    "price": 115.0,
    "tag": "fried,hot,crispy,salty,chicken,nuggets,bite size,mcdo,mcdonalds,snack",
    "desc": "Your favourite chicken McNuggets in friendly serving size!"
  }
},
{
  "model": "baseapp.food",
  "pk": 119,
  "fields": {
    "business": 3,
    "name": "2 pc. Spicy Chicken McDo A la carte",
    "pic": "food_pic/mcdonalds/mcdo-2pcs-spicy-chicken-meal.jpg",
    "price": 159.0,
    "tag": "fried,hot,crispy,salty,chicken,a-la-carte,mcdo,mcdonalds,rice,two-piece",
    "desc": "No frills spicy McDo style fried chicken. Crispy, crunchy and yummy! Double the chicken, double the fun!"
  }
},
{
  "model": "baseapp.food",
  "pk": 120,
  "fields": {
    "business": 3,
    "name": "Chicken Fillet Ala King with Fries Value Meal",
    "pic": "food_pic/mcdonalds/mcdo-chicken-ala-king-fries.png",
    "price": 195.0,
    "tag": "fried,hot,crispy,salty,chicken,chicken-fillet,fries,ala-king,rice,value-meal,mcdo,mcdonalds",
    "desc": "Your favourite chicken-fillet now flavoured with yummy ala king sauce."
  }
},
{
  "model": "baseapp.food",
  "pk": 121,
  "fields": {
    "business": 3,
    "name": "Cheeseburger Value Meal",
    "pic": "food_pic/mcdonalds/mcdo-cheeseburger-meal.jpg",
    "price": 100.0,
    "tag": "burger,cheeseburger,grilled,bun,value-meal,salty,mcdo,mcdonalds,snack,cheap",
    "desc": "Cheeseburger Value Meal"
  }
},
{
  "model": "baseapp.food",
  "pk": 122,
  "fields": {
    "business": 3,
    "name": "Crispy Chicken Sandwich A la carte",
    "pic": "food_pic/mcdonalds/mcdo-crispy-chicken-sandwich-ala-carte.png",
    "price": 147.0,
    "tag": "chicken,crispy,fried,sandwich,a-la-carte,mcdo,mcdonalds,snack",
    "desc": "Crispy Chicken Sandwich A la carte"
  }
},
{
  "model": "baseapp.food",
  "pk": 123,
  "fields": {
    "business": 3,
    "name": "1pc Chicken McDo Value Meal",
    "pic": "food_pic/mcdonalds/mcdo-chicken-meal.png",
    "price": 196.0,
    "tag": "chicken,fried,value-meal,crispy,salty,gravy,mcdo,mcdonalds,one-piece,rice",
    "desc": "1pc Chicken McDo Value Meal"
  }
},
{
  "model": "baseapp.food",
  "pk": 124,
  "fields": {
    "business": 3,
    "name": "1 pc. Spicy Chicken McDo with McSpaghetti A la carte",
    "pic": "food_pic/mcdonalds/mcdo-spicy-chicken-ala-carte-spag.png",
    "price": 116.0,
    "tag": "chicken,fried,crispy,spicy,gravy,spaghetti,a-la-carte,savoury,pasta,mcdo,mcdonalds,one-piece",
    "desc": "1 pc. Spicy Chicken McDo with McSpaghetti A la carte"
  }
},
{
  "model": "baseapp.food",
  "pk": 125,
  "fields": {
    "business": 3,
    "name": "1 pc. Mushroom Pepper Steak with Fries",
    "pic": "food_pic/mcdonalds/mcdo-pepper-steak-fries.png",
    "price": 95.0,
    "tag": "steak,pepper,mushroom,fries,savoury,warm,mcdo,mcdonalds,cheap,rice,one-piece",
    "desc": "1 pc. Mushroom Pepper Steak with Fries"
  }
},
{
  "model": "baseapp.food",
  "pk": 126,
  "fields": {
    "business": 3,
    "name": "Burger McDo Value Meal",
    "pic": "food_pic/mcdonalds/mcdo-burger-valuemeal.png",
    "price": 86.0,
    "tag": "burger,value-meal,bun,grilled,patty,grilled,mcdo,mcdonalds,cheap,snack",
    "desc": "Burger McDo Value Meal"
  }
},
{
  "model": "baseapp.food",
  "pk": 127,
  "fields": {
    "business": 3,
    "name": "BFF Fries",
    "pic": "food_pic/mcdonalds/mcdo-bff-fries.png",
    "price": 132.0,
    "tag": "fries,large,fried,salty,sour,savoury,mcdo,mcdonalds,snack",
    "desc": "BFF Fries"
  }
},
{
  "model": "baseapp.food",
  "pk": 128,
  "fields": {
    "business": 3,
    "name": "1 pc. Spicy Chicken McDo with McSpaghetti Value Meal",
    "pic": "food_pic/mcdonalds/mcdo-spicy-chicken-meal-spag.png",
    "price": 129.0,
    "tag": "spicy,chicken,spaghetti,value-meal,crispy,crunchy,fried,sweet,savoury,gravy,mcdo,mcdonalds,one-piece",
    "desc": "1 pc. Spicy Chicken McDo with McSpaghetti Value Meal"
  }
},
{
  "model": "baseapp.food",
  "pk": 129,
  "fields": {
    "business": 3,
    "name": "Crispy Chicken Sandwich with Fries Value Meal",
    "pic": "food_pic/mcdonalds/mcdo-crispy-chicken-sandwich-fries.png",
    "price": 92.0,
    "tag": "crispy,chicken,sandwich,fries,fried,value-meal,mcdo,mcdonalds,snack,cheap",
    "desc": "Crispy Chicken Sandwich with Fries Value Meal"
  }
},
{
  "model": "baseapp.food",
  "pk": 130,
  "fields": {
    "business": 3,
    "name": "McFlurry with Oreo",
    "pic": "food_pic/mcdonalds/mcdo-mcflurry-oreo.png",
    "price": 50.0,
    "tag": "ice-cream,oreo,sweet,crunchy,cold,thick,mcdo,mcdonalds,snack,cheap",
    "desc": "McFlurry with Oreo"
  }
},
{
  "model": "baseapp.food",
  "pk": 131,
  "fields": {
    "business": 3,
    "name": "10pc Chicken McNuggets A la carte",
    "pic": "food_pic/mcdonalds/mcdo-10pcs-nuggets.jpg",
    "price": 184.0,
    "tag": "chicken,nuggets,crispy,gravy,a-la-carte,large,mcdo,mcdonalds,snack",
    "desc": "10pc Chicken McNuggets A la carte"
  }
},
{
  "model": "baseapp.food",
  "pk": 132,
  "fields": {
    "business": 3,
    "name": "Shake Shake Fries BBQ A la Carte",
    "pic": "food_pic/mcdonalds/mcdo-shake-fries-bbq.jpg",
    "price": 71.0,
    "tag": "fries,bbq,a-la-carte,fried,salty,mcdo,mcdonalds,snack,cheap",
    "desc": "Shake Shake Fries BBQ A la Carte"
  }
},
{
  "model": "baseapp.food",
  "pk": 133,
  "fields": {
    "business": 3,
    "name": "Mcspaghetti A la Carte",
    "pic": "food_pic/mcdonalds/mcdo-spag-ala-carte.jpg",
    "price": 57.0,
    "tag": "spaghetti,a-la-carte,sweet,savoury,hot,pasta,mcdo,mcdonalds,snack,cheap",
    "desc": "Mcspaghetti A la Carte"
  }
},
{
  "model": "baseapp.food",
  "pk": 134,
  "fields": {
    "business": 3,
    "name": "Cheesy Burger McDo A la carte",
    "pic": "food_pic/mcdonalds/mcdo-cheesy-burger.png",
    "price": 47.0,
    "tag": "burger,cheese,cheeseburger,cheesy,a-la-carte,patty,mcdo,mcdonalds,snack,cheap",
    "desc": "Cheesy Burger McDo A la carte"
  }
},
{
  "model": "baseapp.food",
  "pk": 135,
  "fields": {
    "business": 3,
    "name": "1pc Chicken McDo with McSpaghetti Value Meal",
    "pic": "food_pic/mcdonalds/mcdo-chicken-meal-spag.png",
    "price": 126.0,
    "tag": "chicken,crispy,crunchy,fried,spaghetti,value-meal,pasta,savoury,mcdo,mcdonalds",
    "desc": "1pc Chicken McDo with McSpaghetti Value Meal"
  }
},
{
  "model": "baseapp.food",
  "pk": 136,
  "fields": {
    "business": 3,
    "name": "6pc McNuggets with Fries Value Meal",
    "pic": "food_pic/mcdonalds/mcdo-6pc-nuggets-fries.png",
    "price": 152.0,
    "tag": "nuggets,fried,fries,value-meal,crispy,gravy,salty,mcdo,mcdonalds",
    "desc": "6pc McNuggets with Fries Value Meal"
  }
},
{
  "model": "baseapp.food",
  "pk": 137,
  "fields": {
    "business": 3,
    "name": "Sweet Soy Chicken Fillet A la Carte",
    "pic": "food_pic/mcdonalds/mcdo-sweet-soy-chicken-ala-carte.png",
    "price": 57.0,
    "tag": "sweet,soy,chicken,fillet,chicken-fillet,a-la-carte,fried,crispy,savoury,mcdo,mcdonalds,rice,cheap",
    "desc": "Sweet Soy Chicken Fillet A la Carte"
  }
},
{
  "model": "baseapp.food",
  "pk": 138,
  "fields": {
    "business": 3,
    "name": "1 pc. Spicy Chicken McDo with Bacon Cheddar Soup A la carte",
    "pic": "food_pic/mcdonalds/mcdo-spicy-chicken-meal-soup.png",
    "price": 116.0,
    "tag": "spicy,chicken,bacon,cheddar-soup,soup,a-la-carte,fried,crispy,crunchy,mcdo,mcdonalds,rice",
    "desc": "1 pc. Spicy Chicken McDo with Bacon Cheddar Soup A la carte"
  }
},
{
  "model": "baseapp.food",
  "pk": 139,
  "fields": {
    "business": 3,
    "name": "2pc Fish & Fries",
    "pic": "food_pic/mcdonalds/mcdo-2pcs-fish-fries.png",
    "price": 148.0,
    "tag": "fish,fries,salty,fries,crunchy,crispy,mcdo,mcdonalds,snack",
    "desc": "2pc Fish & Fries"
  }
},
{
  "model": "baseapp.food",
  "pk": 140,
  "fields": {
    "business": 3,
    "name": "6pc McNuggets with Rice Value Meal",
    "pic": "food_pic/mcdonalds/mcdo-6pc-nuggets-rice.png",
    "price": 144.0,
    "tag": "nuggets,rice,value-meal,fried,crispy,crunchy,mcdo,mcdonalds",
    "desc": "6pc McNuggets with Rice Value Meal"
  }
},
{
  "model": "baseapp.food",
  "pk": 141,
  "fields": {
    "business": 3,
    "name": "1-pc. Chicken McDo with Sundae Value Meal",
    "pic": "food_pic/mcdonalds/mcdo-chicken-meal-sundae.png",
    "price": 126.0,
    "tag": "chicken,crunchy,crispy,fried,sundae,value-meal,sweet,hot,cold,ice-cream,mcdo,mcdonalds,rice",
    "desc": "1-pc. Chicken McDo with Sundae Value Meal"
  }
},
{
  "model": "baseapp.food",
  "pk": 142,
  "fields": {
    "business": 3,
    "name": "Crispy Chicken Sandwich Value Meal",
    "pic": "food_pic/mcdonalds/mcdo-crispy-chicken-sandwich-meal.png",
    "price": 63.0,
    "tag": "crispy,chicken,crunchy,sandwich,fried,value-meal,mcdo,mcdonalds,snack,cheap",
    "desc": "Crispy Chicken Sandwich Value Meal"
  }
},
{
  "model": "baseapp.food",
  "pk": 143,
  "fields": {
    "business": 3,
    "name": "Chicken Fillet Ala King Value Meal",
    "pic": "food_pic/mcdonalds/mcdo-chicken-ala-king-meal.png",
    "price": 67.0,
    "tag": "chicken,fillet,chicken-fillet,crunchy,crispy,fried,ala-king,value-meal,mcdo,mcdonalds,cheap",
    "desc": "Chicken Fillet Ala King Value Meal"
  }
},
{
  "model": "baseapp.food",
  "pk": 144,
  "fields": {
    "business": 3,
    "name": "McSpaghetti Value Meal",
    "pic": "food_pic/mcdonalds/mcdo-spag-meal.jpg",
    "price": 62.0,
    "tag": "spaghetti,value-meal,pasta,savoury,mcdo,mcdonalds,cheap",
    "desc": "McSpaghetti Value Meal"
  }
},
{
  "model": "baseapp.food",
  "pk": 145,
  "fields": {
    "business": 3,
    "name": "2pc Chicken McDo A la carte",
    "pic": "food_pic/mcdonalds/mcdo-2pcs-chicken-ala-carte.png",
    "price": 156.0,
    "tag": "chicken,a-la-carte,crispy,fried,crunchy,gravy,mcdo,mcdonalds,two-piece",
    "desc": "2pc Chicken McDo A la carte"
  }
},
{
  "model": "baseapp.food",
  "pk": 146,
  "fields": {
    "business": 3,
    "name": "Cheeseburger Deluxe Value Meal",
    "pic": "food_pic/mcdonalds/mcdo-cheeseburger-deluxe-meal.jpg",
    "price": 117.0,
    "tag": "cheeseburger,cheesy,cheese,burger,deluxe,value-meal,mcdo,mcdonalds,snack",
    "desc": "Cheeseburger Deluxe Value Meal"
  }
},
{
  "model": "baseapp.food",
  "pk": 147,
  "fields": {
    "business": 3,
    "name": "1 pc. Spicy Chicken McDo with Fries Value Meal",
    "pic": "food_pic/mcdonalds/mcdo-spicy-chicken-meal-fries.png",
    "price": 111.0,
    "tag": "spicy,chicken,crunchy,crispy,gravy,fried,fries,salty,value-meal,mcdo,mcdonalds,rice,one-piece",
    "desc": "1 pc. Spicy Chicken McDo with Fries Value Meal"
  }
},
{
  "model": "baseapp.food",
  "pk": 148,
  "fields": {
    "business": 3,
    "name": "1 pc. Chicken McDo with Fries and Mcfloat Value Meal",
    "pic": "food_pic/mcdonalds/mcdo-chicken-meal-fries-float.png",
    "price": 115.0,
    "tag": "chicken,crunchy,crispy,gravy,fried,fries,salty,value-meal,mcdo,mcdonalds,rice",
    "desc": "1 pc. Chicken McDo with Fries and Mcfloat Value Meal"
  }
},
{
  "model": "baseapp.food",
  "pk": 149,
  "fields": {
    "business": 3,
    "name": "Cheesy Burger McDo Value Meal",
    "pic": "food_pic/mcdonalds/mcdo-cheesy-burger-meal.jpg",
    "price": 163.0,
    "tag": "cheesy,burger,cheese,value-meal,hot,mcdo,mcdonalds,snack",
    "desc": "Cheesy Burger McDo Value Meal"
  }
},
{
  "model": "baseapp.food",
  "pk": 150,
  "fields": {
    "business": 3,
    "name": "Large Fries",
    "pic": "food_pic/mcdonalds/mcdo-fries-large.png",
    "price": 76.0,
    "tag": "large,fried,fried,salty,potato,mcdo,mcdonalds,snack,cheap",
    "desc": "Large Fries"
  }
},
{
  "model": "baseapp.food",
  "pk": 151,
  "fields": {
    "business": 3,
    "name": "Burger McDo A la carte",
    "pic": "food_pic/mcdonalds/mcdo-burger-ala-carte.png",
    "price": 46.0,
    "tag": "burger,a-la-carte,savoury,grilled,mushy,mcdo,mcdonalds,snack,cheap",
    "desc": "Burger McDo A la carte"
  }
},
{
  "model": "baseapp.food",
  "pk": 152,
  "fields": {
    "business": 3,
    "name": "2-pc. Mushroom Pepper Steak Value Meal",
    "pic": "food_pic/mcdonalds/mcdo-pepper-steak-2pc.png",
    "price": 102.0,
    "tag": "steak,pepper,mushroom,fries,savoury,warm,mcdo,mcdonalds,two-piece",
    "desc": "2-pc. Mushroom Pepper Steak Value Meal"
  }
},
{
  "model": "baseapp.food",
  "pk": 153,
  "fields": {
    "business": 3,
    "name": "1pc Chicken McDo with Sundae Value Meal",
    "pic": "food_pic/mcdonalds/mcdo-chicken-meal-sundae.png",
    "price": 126.0,
    "tag": "chicken,crispy,crunchy,fried,value-meal,sundae,ice-cream,cold,sweet,mcdo,mcdonalds,one-piece",
    "desc": "1pc Chicken McDo with Sundae Value Meal"
  }
},
{
  "model": "baseapp.food",
  "pk": 154,
  "fields": {
    "business": 3,
    "name": "Apple Pie",
    "pic": "food_pic/mcdonalds/mcdo-apple-pie.png",
    "price": 32.0,
    "tag": "pie,apple,hot,crunchy,sweet,mcdo,mcdonalds,snack,cheap",
    "desc": "Apple Pie"
  }
},
{
  "model": "baseapp.food",
  "pk": 155,
  "fields": {
    "business": 3,
    "name": "Fish & Rice",
    "pic": "food_pic/mcdonalds/mcdo-fish-and-rice.jpg",
    "price": 53.0,
    "tag": "fish,rice,salty,savoury,mcdo,mcdonalds,cheap",
    "desc": "Fish & Rice"
  }
},
{
  "model": "baseapp.food",
  "pk": 156,
  "fields": {
    "business": 3,
    "name": "McChicken Sandwich Value Meal",
    "pic": "food_pic/mcdonalds/mcdo-crispy-chicken-sandwich-meal.png",
    "price": 140.0,
    "tag": "chicken,sandwich,crunchy,crispy,fried,value-meal,mcdo,mcdonalds,snack",
    "desc": "McChicken Sandwich Value Meal"
  }
},
{
  "model": "baseapp.food",
  "pk": 157,
  "fields": {
    "business": 3,
    "name": "1pc Chicken McDo with McSpaghetti A la carte",
    "pic": "food_pic/mcdonalds/mcdo-chicken-spag-ala-carte.png",
    "price": 113.0,
    "tag": "chicken,fried,crispy,gravy,spaghetti,a-la-carte,savoury,pasta,mcdo,mcdonalds,rice",
    "desc": "1pc Chicken McDo with McSpaghetti A la carte"
  }
},
{
  "model": "baseapp.food",
  "pk": 158,
  "fields": {
    "business": 3,
    "name": "Quarter Pounder with Cheese Value Meal",
    "pic": "food_pic/mcdonalds/mcdo-quarter-pounder.png",
    "price": 180.0,
    "tag": "burger,cheese,value-meal,cheesy,patty,mcdo,mcdonalds,snack",
    "desc": "Quarter Pounder with Cheese Value Meal"
  }
},
{
  "model": "baseapp.food",
  "pk": 159,
  "fields": {
    "business": 3,
    "name": "1pc Chicken McDo with Rice and Fries Value Meal",
    "pic": "food_pic/mcdonalds/mcdo-chicken-meal.png",
    "price": 108.0,
    "tag": "chicken,rice,fries,value-meal,crispy,crunchy,salty,mcdo,mcdonalds,one-piece",
    "desc": "1pc Chicken McDo with Rice and Fries Value Meal"
  }
},
{
  "model": "baseapp.food",
  "pk": 160,
  "fields": {
    "business": 3,
    "name": "2pc Chicken McDo Value Meal",
    "pic": "food_pic/mcdonalds/mcdo-chicken-meal-2pc.png",
    "price": 169.0,
    "tag": "fried,sweet,hot,crispy,salty,value-meal,chicken,mcdo,mcdonalds,two-piece,rice",
    "desc": "2pc Chicken McDo Value Meal"
  }
},
{
  "model": "baseapp.food",
  "pk": 161,
  "fields": {
    "business": 3,
    "name": "1pc Chicken McDo A la carte",
    "pic": "food_pic/mcdonalds/mcdo-chicken-meal-ala-carte.png",
    "price": 83.0,
    "tag": "chicken,crunchy,crispy,a-la-carte,gravy,mcdo,mcdonalds,cheap,one-piece,rice",
    "desc": "1pc Chicken McDo A la carte"
  }
},
{
  "model": "baseapp.food",
  "pk": 162,
  "fields": {
    "business": 3,
    "name": "Oreo Matcha McFlurry",
    "pic": "food_pic/mcdonalds/mcdo-oreo-matcha-mcflurry.jpg",
    "price": 60.0,
    "tag": "oreo,matcha,ice-cream,sweet,cold,ice,mcdo,mcdonalds,snack,cheap",
    "desc": "Oreo Matcha McFlurry"
  }
},
{
  "model": "baseapp.food",
  "pk": 163,
  "fields": {
    "business": 3,
    "name": "1 pc. Spicy Chicken McDo with Fries and Mcfloat Value Meal",
    "pic": "food_pic/mcdonalds/mcdo-spicy-chicken-meal-fries-float.png",
    "price": 118.0,
    "tag": "spicy,chicken,crunchy,crispy,fried,fries,salty,ice-cream,float,sweet,cold,hot,value-meal,mcdo,mcdonalds,rice",
    "desc": "1 pc. Spicy Chicken McDo with Fries and Mcfloat Value Meal"
  }
},
{
  "model": "baseapp.food",
  "pk": 164,
  "fields": {
    "business": 3,
    "name": "Sweet Soy Chicken with Fries Value Meal",
    "pic": "food_pic/mcdonalds/mcdo-sweet-soy-chicken-fries.png",
    "price": 195.0,
    "tag": "fried,sweet,hot,crispy,salty,soy,value-meal,chicken,fries,salty,mcdo,mcdonalds,rice",
    "desc": "Sweet Soy Chicken with Fries Value Meal"
  }
},
{
  "model": "baseapp.food",
  "pk": 165,
  "fields": {
    "business": 3,
    "name": "Regular Fries",
    "pic": "food_pic/mcdonalds/mcdo-fries-regular.png",
    "price": 42.0,
    "tag": "fries,regular,fried,salty,potato,mcdo,mcdonalds,snack,cheap",
    "desc": "Regular Fries"
  }
},
{
  "model": "baseapp.food",
  "pk": 166,
  "fields": {
    "business": 3,
    "name": "Crispy Chicken Fillet with Rice",
    "pic": "food_pic/mcdonalds/mcdo-chicken-fillet-meal.png",
    "price": 67.0,
    "tag": "crispy,crunchy,chicken,fillet,rice,gravy,salty,gravy,mcdo,mcdonalds,cheap",
    "desc": "Crispy Chicken Fillet with Rice"
  }
},
{
  "model": "baseapp.food",
  "pk": 167,
  "fields": {
    "business": 3,
    "name": "1 pc. Spicy Chicken McDo A la carte",
    "pic": "food_pic/mcdonalds/mcdo-spicy-chicken-ala-carte.png",
    "price": 186.0,
    "tag": "fried,spicy,hot,crispy,salty,gravy,a-la-carte,chicken,mcdo,mcdonalds,one-piece,rice",
    "desc": "1 pc. Spicy Chicken McDo A la carte"
  }
},
{
  "model": "baseapp.food",
  "pk": 168,
  "fields": {
    "business": 4,
    "name": "Ham & Pineapples",
    "pic": "food_pic/greenwich/greenwich-ham-pineapple.jpg",
    "price": 165.0,
    "tag": "fried,sweet,sticky,baked,thick,melted,pizza,cheesy,ham,pineapples,greenwich",
    "desc": "Classic Hawaiian combination of sweet pineapples, ham and cheese"
  }
},
{
  "model": "baseapp.food",
  "pk": 169,
  "fields": {
    "business": 4,
    "name": "Hawaiian Overload",
    "pic": "food_pic/greenwich/greenwich-hawaiian-overload.png",
    "price": 241.0,
    "tag": "sweet,fried,sticky,baked,thick,melted,pizza,ham,pineapples,overload,greenwich",
    "desc": "Our best-selling Hawaiian pizza with a delicious blend of sweet pineapples, ham, bacon, mozzarella and cheddar."
  }
},
{
  "model": "baseapp.food",
  "pk": 170,
  "fields": {
    "business": 4,
    "name": "Cheesy Bread Sticks with Dip",
    "pic": "food_pic/greenwich/greenwich-cheesy-breadsticks.png",
    "price": 147.0,
    "tag": "savoury,sweet,baked,warm,sticky,cheesy,bread,dip,greenwich,snack",
    "desc": "Melted mozzarella and parmesan on soft bread sticks, paired with pizza sauce dip!"
  }
},
{
  "model": "baseapp.food",
  "pk": 171,
  "fields": {
    "business": 4,
    "name": "Dealicious Duo 499",
    "pic": "food_pic/greenwich/greenwich-dealicious-duo.jpg",
    "price": 499.0,
    "tag": "fried,sweet,sticky,baked,thick,melted,pizza,greenwich",
    "desc": "2 dealicious Classic pizzas for only P499"
  }
},
{
  "model": "baseapp.food",
  "pk": 172,
  "fields": {
    "business": 4,
    "name": "Classic Meal 3",
    "pic": "food_pic/greenwich/greenwich-classic-meal-3.png",
    "price": 127.0,
    "tag": "fried,boiled,sweet,crunchy,melted,chicken,pasta,rice,spaghetti,greenwich",
    "desc": "1 pc. Crunchy Fried Chicken, spaghetti and a cup of rice"
  }
},
{
  "model": "baseapp.food",
  "pk": 173,
  "fields": {
    "business": 4,
    "name": "Lasagna Supreme Pan",
    "pic": "food_pic/greenwich/greenwich-lasagna-supreme-pan.jpg",
    "price": 462.0,
    "tag": "boiled,sweet,melted,sticky,mushy,pasta,cheesy,beef,lasagna,greenwich",
    "desc": "Our best pasta made with loaded layers of beef and cheese in a pan best for potlucks, parties, or any barkada bonding."
  }
},
{
  "model": "baseapp.food",
  "pk": 174,
  "fields": {
    "business": 4,
    "name": "Bacon Overload",
    "pic": "food_pic/greenwich/greenwich-bacon-overload.jpg",
    "price": 274.0,
    "tag": "baked,fried,sticky,crunchy,crispy,pizza,ham,cheesy,mushrooms,bacon,overload,greenwich",
    "desc": "Our baconest pizza! Bacon, ham, mozzarella, cream cheese and mushrooms on freshly baked crust."
  }
},
{
  "model": "baseapp.food",
  "pk": 175,
  "fields": {
    "business": 4,
    "name": "Pepperoni",
    "pic": "food_pic/greenwich/greenwich-pepperoni.jpg",
    "price": 165.0,
    "tag": "baked,sticky,crispy,sweet,cheesy,pizza,pepperoni,greenwich",
    "desc": "Classic combination of pepperoni and cheese"
  }
},
{
  "model": "baseapp.food",
  "pk": 176,
  "fields": {
    "business": 4,
    "name": "Very Cheesy Macaroni Pan",
    "pic": "food_pic/greenwich/greenwich-very-cheesy-macaroni-pan.jpg",
    "price": 462.0,
    "tag": "sticky,boiled,sweet,mushy,pasta,macaroni,cheesy,greenwich",
    "desc": "Our cheesiest pasta in a pan best for potlucks, parties, or any barkada bonding."
  }
},
{
  "model": "baseapp.food",
  "pk": 177,
  "fields": {
    "business": 4,
    "name": "Lasagna Supreme Ala Carte",
    "pic": "food_pic/greenwich/greenwich-lasagna-supreme.png",
    "price": 110.0,
    "tag": "boiled,sweet,melted,sticky,mushy,pasta,lasagna,cheesy,a-la-carte,greenwich",
    "desc": "Loaded layers of beef & lots of cheese perfectly blended in creamy b\u00e9chamel and flavorful tomato sauce. Our bestseller!"
  }
},
{
  "model": "baseapp.food",
  "pk": 178,
  "fields": {
    "business": 4,
    "name": "P699 Dealicious Duo",
    "pic": "food_pic/greenwich/greenwich-699-dealicious-duo.png",
    "price": 699.0,
    "tag": "crispy,sticky,sweet,thick,crunchy,pizza,cheesy,pepperoni,bacon,mushrooms,pineapples,beef,overload,greenwich",
    "desc": "Not 1, but 2 OVERLOADED pizzas for only P699!"
  }
},
{
  "model": "baseapp.food",
  "pk": 179,
  "fields": {
    "business": 4,
    "name": "Creamy Carbonara Ala Carte",
    "pic": "food_pic/greenwich/greenwich-creamy-carbonara.png",
    "price": 110.0,
    "tag": "creamy,smoked,sticky,mushy,pasta,macaroni,cheesy,bacon,sauce,a-la-carte,greenwich,snack",
    "desc": "Delightfully tasty pasta in creamy white sauce with ham and mushrooms, topped with smoked bacon and parmesan cheese."
  }
},
{
  "model": "baseapp.food",
  "pk": 180,
  "fields": {
    "business": 4,
    "name": "Wacky Wings",
    "pic": "food_pic/greenwich/greenwich-wacky-wings.png",
    "price": 131.0,
    "tag": "crispy,flavorful,chicken,chicken-wings,greenwich,snack",
    "desc": "Crispy, flavorful fried chicken wings served in wingette and drumette parts. Perfect with our delicious pizzas!"
  }
},
{
  "model": "baseapp.food",
  "pk": 181,
  "fields": {
    "business": 4,
    "name": "Veggies & Cheese Overload",
    "pic": "food_pic/greenwich/greenwich-veggies-cheese-overload.jpg",
    "price": 241.0,
    "tag": "vegetables,pineapples,cheesy,pizza,thin,overload,greenwich",
    "desc": "Delicious combination of fresh vegetables, pineapples and a premium blend of cheeses on crispy thin crust"
  }
},
{
  "model": "baseapp.food",
  "pk": 182,
  "fields": {
    "business": 4,
    "name": "Bacon Crispy Thins",
    "pic": "food_pic/greenwich/greenwich-bacon-crispy-thins.png",
    "price": 274.0,
    "tag": "bacon,ham,crispy,cheesy,mushrooms,pizza,thin,greenwich",
    "desc": "Bacon, ham, mozzarella, cream cheese and mushrooms on rispy thin crust"
  }
},
{
  "model": "baseapp.food",
  "pk": 183,
  "fields": {
    "business": 4,
    "name": "Extreme Cheese Overload",
    "pic": "food_pic/greenwich/greenwich-extreme-cheese-overload.png",
    "price": 241.0,
    "tag": "pizza,cheesy,overload,greenwich",
    "desc": "Overloaded with premium cheeses like mozzarella, cheddar, parmesan and special cheese for that oozing cheesy flavor."
  }
},
{
  "model": "baseapp.food",
  "pk": 184,
  "fields": {
    "business": 4,
    "name": "Very Cheesy Macaroni Ala Carte",
    "pic": "food_pic/greenwich/greenwich-very-cheesy-macaroni.png",
    "price": 194.0,
    "tag": "pasta,macaroni,cheesy,sauce,crispy,bacon,pepperoni,a-la-carte,greenwich",
    "desc": "Elbow macaroni in a generous serving of cheese sauce with bits of crispy bacon and pepperoni. Our cheesiest pasta ever!"
  }
},
{
  "model": "baseapp.food",
  "pk": 185,
  "fields": {
    "business": 4,
    "name": "Spaghetti Supreme Ala Carte",
    "pic": "food_pic/greenwich/greenwich-spaghetti-supreme.png",
    "price": 166.0,
    "tag": "spaghetti,pasta,meaty,sauce,cheesy,a-la-carte,greenwich",
    "desc": "Classic Spaghetti noodles in a rich, meaty tomato sauce topped with cheese."
  }
},
{
  "model": "baseapp.food",
  "pk": 186,
  "fields": {
    "business": 4,
    "name": "Spaghetti Chicken Plate",
    "pic": "food_pic/greenwich/greenwich-spaghetti-chicken-plate.png",
    "price": 149.0,
    "tag": "spaghetti,pasta,chicken,crunchy,fried,greenwich",
    "desc": "Spaghetti Supreme with 1 pc. Crunchy fried chicken"
  }
},
{
  "model": "baseapp.food",
  "pk": 187,
  "fields": {
    "business": 4,
    "name": "Lasagna Chicken Plate",
    "pic": "food_pic/greenwich/greenwich-lasagna-chicken-plate.png",
    "price": 165.0,
    "tag": "lasagna,pasta,chicken,crunchy,fried,greenwich",
    "desc": "Our bestselling Lasagna Supreme with 1 pc. of fried Crunchy Chicken"
  }
},
{
  "model": "baseapp.food",
  "pk": 188,
  "fields": {
    "business": 4,
    "name": "Overloaded Supreme Meal 2",
    "pic": "food_pic/greenwich/greenwich-overloaded-supreme-meal-2.png",
    "price": 198.0,
    "tag": "chicken,cruncy,fried,spaghetti,pasta,rice,pineapples,bacon,vegetables,cheesy,overload,greenwich",
    "desc": "1 pc Jumbo Crunchy Chicken, 1/2 spaghetti, 1 cup rice, 1 solo Hawaiian OL (Options: Bacon OL, Exteme Cheese OL, Veggies & Cheese OL)"
  }
},
{
  "model": "baseapp.food",
  "pk": 189,
  "fields": {
    "business": 4,
    "name": "Spaghetti Supreme Pan",
    "pic": "food_pic/greenwich/greenwich-spaghetti-supreme-pan.jpg",
    "price": 286.0,
    "tag": "spaghetti,pasta,sticky,greenwich",
    "desc": "Our classic spaghetti in a pan best for potlucks, parties, or any barkada bonding."
  }
},
{
  "model": "baseapp.food",
  "pk": 190,
  "fields": {
    "business": 4,
    "name": "Creamy Carbonara",
    "pic": "food_pic/greenwich/greenwich-creamy-carbonara.png",
    "price": 462.0,
    "tag": "tasty,delicious,creamy,pasta,carbonara,greenwich",
    "desc": "Our delightfully tasty, deliciously creamy pasta  in a pan best for potlucks, parties, or any barkada bonding."
  }
},
{
  "model": "baseapp.food",
  "pk": 191,
  "fields": {
    "business": 4,
    "name": "15-inch 4-in-1 Overload Pizza",
    "pic": "food_pic/greenwich/greenwich-15-inch-4-in-1-overload-pizza.png",
    "price": 626.0,
    "tag": "overload,pizza,pineapples,bacon,meaty,pepperoni,mushrooms,baked,greenwich",
    "desc": "Our delicious Ultimate Overload, Hawaiian Overload, All Meat Overload and Pepperoni in one 15-inch freshly baked pizza!"
  }
},
{
  "model": "baseapp.food",
  "pk": 192,
  "fields": {
    "business": 4,
    "name": "Carbonara Chicken Plate",
    "pic": "food_pic/greenwich/greenwich-carbonara-chicken-plate.png",
    "price": 165.0,
    "tag": "creamy,bacon,pasta,carbonara,crunchy,fried,chicken,greenwich,snack",
    "desc": "Creamy Bacon Carbonara with 1 pc. Crunchy fried chicken"
  }
},
{
  "model": "baseapp.food",
  "pk": 193,
  "fields": {
    "business": 4,
    "name": "Ham & Cheese",
    "pic": "food_pic/greenwich/greenwich-ham-and-cheese.jpg",
    "price": 165.0,
    "tag": "ham,cheesy,pizza,greenwich",
    "desc": "Classic combination of ham and cheese"
  }
},
{
  "model": "baseapp.food",
  "pk": 194,
  "fields": {
    "business": 4,
    "name": "Potato Waves",
    "pic": "food_pic/greenwich/greenwich-potato-waves.jpg",
    "price": 43.0,
    "tag": "potato,crispy,deep-fried,flavoured,greenwich,snack,cheap",
    "desc": "Crispy fried potato ridges lightly seasoned with garlic and herbs."
  }
},
{
  "model": "baseapp.food",
  "pk": 195,
  "fields": {
    "business": 4,
    "name": "P599 Dealicious Duo",
    "pic": "food_pic/greenwich/greenwich-599-dealicious-duo.jpg",
    "price": 599.0,
    "tag": "pizza,cheesy,overload,meaty,greenwich",
    "desc": "1 Classic pizza and 1 OVERLOADED pizza for only P599"
  }
},
{
  "model": "baseapp.food",
  "pk": 196,
  "fields": {
    "business": 4,
    "name": "Dippers",
    "pic": "food_pic/greenwich/greenwich-dippers.jpg",
    "price": 50.0,
    "tag": "deep-fried,sweet,chocolate,dip,fresh,soft,greenwich,snack,cheap",
    "desc": "Freshly fried bite-sized dough coated with cinnamon sugar and served with a chocolate dip"
  }
},
{
  "model": "baseapp.food",
  "pk": 197,
  "fields": {
    "business": 4,
    "name": "Overloaded Supreme Meal 1",
    "pic": "food_pic/greenwich/greenwich-overloaded-supreme-meal-1.png",
    "price": 226.0,
    "tag": "fried,chicken,chicken-wings,snack,lasagna,pasta,pizza,cheesy,bacon,pepperoni,mushrooms,meaty,vegetables,overload,greenwich",
    "desc": "2 pcs wings, 1 snack Lasagna Supreme, 1 solo Hawaiian OL (Options: Bacon OL, Exteme Cheese OL, Veggies & Cheese OL)"
  }
},
{
  "model": "baseapp.food",
  "pk": 198,
  "fields": {
    "business": 4,
    "name": "2 pc. Crunchy Chicken Meal",
    "pic": "food_pic/greenwich/greenwich-2pc-crunchy-chicken-meal.jpg",
    "price": 160.0,
    "tag": "crunchy,fried,chicken,rice,greenwich",
    "desc": "2 pcs. Crunchy fried chicken and a cup of rice"
  }
},
{
  "model": "baseapp.food",
  "pk": 199,
  "fields": {
    "business": 4,
    "name": "P499 Overloaded Trio",
    "pic": "food_pic/greenwich/greenwich-499-overloaded-trio.jpg",
    "price": 499.0,
    "tag": "pizza,pineapples,cheesy,vegetables,greenwich",
    "desc": "3 9\" Double Pizzas (2 Hawaiian Overload, 1 Veggies & Cheese Overload)"
  }
},
{
  "model": "baseapp.food",
  "pk": 200,
  "fields": {
    "business": 4,
    "name": "Very Cheesy Macaroni Chicken Plate",
    "pic": "food_pic/greenwich/greenwich-very-cheesy-macaroni-chicken-plate.png",
    "price": 165.0,
    "tag": "cheesy,pasta,macaroni,crunchy,fried,chicken,greenwich",
    "desc": "Very Cheesy Macaroni with 1 pc.  Crunchy fried chicken"
  }
},
{
  "model": "baseapp.food",
  "pk": 201,
  "fields": {
    "business": 4,
    "name": "1 pc. Crunchy Chicken Meal",
    "pic": "food_pic/greenwich/greenwich-1pc-crunchy-chicken-meal.jpg",
    "price": 194.0,
    "tag": "crunchy,fried,chicken,rice,greenwich",
    "desc": "Crunchy fried chicken and a cup of rice"
  }
},
{
  "model": "baseapp.food",
  "pk": 202,
  "fields": {
    "business": 4,
    "name": "Garlic Stix",
    "pic": "food_pic/greenwich/greenwich-garlic-stix.png",
    "price": 32.0,
    "tag": "bread,sticks,garlic,flavoured,baked,greenwich,snack,cheap",
    "desc": "Freshly baked garlic-flavored bread sticks. Perfect with our delicious pastas."
  }
},
{
  "model": "baseapp.food",
  "pk": 203,
  "fields": {
    "business": 4,
    "name": "Pepperoni Overload",
    "pic": "food_pic/greenwich/greenwich-pepperoni-overload.jpg",
    "price": 241.0,
    "tag": "pepperoni,pizza,crispy,thin,cheesy,overload,greenwich",
    "desc": "Sumptuous pepperoni and cheese on crispy thin crust"
  }
},
{
  "model": "baseapp.food",
  "pk": 204,
  "fields": {
    "business": 4,
    "name": "Caramel Bites",
    "pic": "food_pic/greenwich/greenwich-caramel-bites.png",
    "price": 147.0,
    "tag": "caramel,bites,dessert,baked,sweet,caramelised,sticky,greenwich,snack",
    "desc": "Caramel-drizzled, baked dessert."
  }
},
{
  "model": "baseapp.food",
  "pk": 205,
  "fields": {
    "business": 4,
    "name": "Classic Meal 2",
    "pic": "food_pic/greenwich/greenwich-classic-meal-2.png",
    "price": 154.0,
    "tag": "pizza,cheesy,ham,pineapples,crunchy,fried,chicken,pasta,spaghetti,rice,greenwich",
    "desc": "1 slice of Ham & Pineapples Pizza, 1 pc. Crunchy Chicken with Spaghetti, and 1 cup of rice."
  }
},
{
  "model": "baseapp.food",
  "pk": 206,
  "fields": {
    "business": 4,
    "name": "Wings & Waves",
    "pic": "food_pic/greenwich/greenwich-wings-and-waves.png",
    "price": 164.0,
    "tag": "potato,crispy,deep-fried,flavoured,crispy,flavorful,chicken,chicken-wings,greenwich,snack",
    "desc": "Our Wacky Wings and Potato Waves together in one basket. Perfect with our pizzas!"
  }
}
]