[
  {
    "food_name": "Ham & Pineapples",
    "food_desc": "Classic Hawaiian combination of sweet pineapples, ham and cheese",
    "food_price": "165.00",
    "food_tags": [
      "fried",
      "sweet",
      "sticky",
      "baked",
      "thick",
      "melted",
      "pizza",
      "cheesy",
      "ham",
      "pineapples",
      "greenwich"
    ]
  },
  {
    "food_name": "Hawaiian Overload",
    "food_desc": "Our best-selling Hawaiian pizza with a delicious blend of sweet pineapples, ham, bacon, mozzarella and cheddar.",
    "food_price": "241.00",
    "food_tags": [
      "sweet",
      "fried",
      "sticky",
      "baked",
      "thick",
      "melted",
      "pizza",
      "ham",
      "pineapples",
      "overload",
      "greenwich"
    ]
  },
  {
    "food_name": "Cheesy Bread Sticks with Dip",
    "food_desc": "Melted mozzarella and parmesan on soft bread sticks, paired with pizza sauce dip!",
    "food_price": "147.00",
    "food_tags": [
      "savoury",
      "sweet",
      "baked",
      "warm",
      "sticky",
      "cheesy",
      "bread",
      "dip",
      "greenwich"
    ]
  },
  {
    "food_name": "Dealicious Duo 499",
    "food_desc": "2 dealicious Classic pizzas for only P499",
    "food_price": "499.00",
    "food_tags": [
      "fried",
      "sweet",
      "sticky",
      "baked",
      "thick",
      "melted",
      "pizza",
      "greenwich"
    ]
  },
  {
    "food_name": "Classic Meal 3",
    "food_desc": "1 pc. Crunchy Fried Chicken, spaghetti and a cup of rice",
    "food_price": "127.00",
    "food_tags": [
      "fried",
      "boiled",
      "sweet",
      "crunchy",
      "melted",
      "chicken",
      "pasta",
      "rice",
      "spaghetti",
      "greenwich"
    ]
  },
  {
    "food_name": "Lasagna Supreme Pan",
    "food_desc": "Our best pasta made with loaded layers of beef and cheese in a pan best for potlucks, parties, or any barkada bonding.",
    "food_price": "462.00",
    "food_tags": [
      "boiled",
      "sweet",
      "melted",
      "sticky",
      "mushy",
      "pasta",
      "cheesy",
      "beef",
      "lasagna",
      "greenwich"
    ]
  },
  {
    "food_name": "Bacon Overload",
    "food_desc": "Our baconest pizza! Bacon, ham, mozzarella, cream cheese and mushrooms on freshly baked crust.",
    "food_price": "274.00",
    "food_tags": [
      "baked",
      "fried",
      "sticky",
      "crunchy",
      "crispy",
      "pizza",
      "ham",
      "cheesy",
      "mushrooms",
      "bacon",
      "overload",
      "greenwich"
    ]
  },
  {
    "food_name": "Pepperoni",
    "food_desc": "Classic combination of pepperoni and cheese",
    "food_price": "165.00",
    "food_tags": [
      "baked",
      "sticky",
      "crispy",
      "sweet",
      "cheesy",
      "pizza",
      "pepperoni",
      "greenwich"
    ]
  },
  {
    "food_name": "Very Cheesy Macaroni Pan",
    "food_desc": "Our cheesiest pasta in a pan best for potlucks, parties, or any barkada bonding.",
    "food_price": "462.00",
    "food_tags": [
      "sticky",
      "boiled",
      "sweet",
      "mushy",
      "pasta",
      "macaroni",
      "cheesy",
      "greenwich"
    ]
  },
  {
    "food_name": "Lasagna Supreme Ala Carte",
    "food_desc": "Loaded layers of beef & lots of cheese perfectly blended in creamy béchamel and flavorful tomato sauce. Our bestseller!",
    "food_price": "110.00",
    "food_tags": [
      "boiled",
      "sweet",
      "melted",
      "sticky",
      "mushy",
      "pasta",
      "lasagna",
      "cheesy",
      "ala carte",
      "greenwich"
    ]
  },
  {
    "food_name": "P699 Dealicious Duo",
    "food_desc": "Not 1, but 2 OVERLOADED pizzas for only P699!",
    "food_price": "699.00",
    "food_tags": [
      "crispy",
      "sticky",
      "sweet",
      "thick",
      "crunchy",
      "pizza",
      "cheesy",
      "pepperoni",
      "bacon",
      "mushrooms",
      "pineapples",
      "beef",
      "overload",
      "greenwich"
    ]
  },
  {
    "food_name": "Creamy Carbonara Ala Carte",
    "food_desc": "Delightfully tasty pasta in creamy white sauce with ham and mushrooms, topped with smoked bacon and parmesan cheese.",
    "food_price": "110.00",
    "food_tags": [
      "creamy",
      "smoked",
      "sticky",
      "mushy",
      "pasta",
      "macaroni",
      "cheesy",
      "bacon",
      "sauce",
      "ala carte",
      "greenwich"
    ]
  },
  {
    "food_name": "Wacky Wings",
    "food_desc": "Crispy, flavorful fried chicken wings served in wingette and drumette parts. Perfect with our delicious pizzas!",
    "food_price": "131.00",
    "food_tags": [
      "crispy",
      "flavorful",
      "chicken",
      "chicken wings",
      "greenwich"
    ]
  },
  {
    "food_name": "Veggies & Cheese Overload",
    "food_desc": "Delicious combination of fresh vegetables, pineapples and a premium blend of cheeses on crispy thin crust",
    "food_price": "241.00",
    "food_tags": [
      "vegetables",
      "pineapples",
      "cheesy",
      "pizza",
      "thin",
      "overload",
      "greenwich"
    ]
  },
  {
    "food_name": "Bacon Crispy Thins",
    "food_desc": "Bacon, ham, mozzarella, cream cheese and mushrooms on rispy thin crust",
    "food_price": "274.00",
    "food_tags": [
      "bacon",
      "ham",
      "crispy",
      "cheesy",
      "mushrooms",
      "pizza",
      "thin",
      "greenwich"
    ]
  },
  {
    "food_name": "Extreme Cheese Overload",
    "food_desc": "Overloaded with premium cheeses like mozzarella, cheddar, parmesan and special cheese for that oozing cheesy flavor.",
    "food_price": "241.00",
    "food_tags": [
      "pizza",
      "cheesy",
      "overload",
      "greenwich"
    ]
  },
  {
    "food_name": "Very Cheesy Macaroni Ala Carte",
    "food_desc": "Elbow macaroni in a generous serving of cheese sauce with bits of crispy bacon and pepperoni. Our cheesiest pasta ever!",
    "food_price": "194.00",
    "food_tags": [
      "pasta",
      "macaroni",
      "cheesy",
      "sauce",
      "crispy",
      "bacon",
      "pepperoni",
      "ala carte",
      "greenwich"
    ]
  },
  {
    "food_name": "Spaghetti Supreme Ala Carte",
    "food_desc": "Classic Spaghetti noodles in a rich, meaty tomato sauce topped with cheese.",
    "food_price": "166.00",
    "food_tags": [
      "spaghetti",
      "pasta",
      "meaty",
      "sauce",
      "cheesy",
      "ala carte",
      "greenwich"
    ]
  },
  {
    "food_name": "Spaghetti Chicken Plate",
    "food_desc": "Spaghetti Supreme with 1 pc. Crunchy fried chicken",
    "food_price": "149.00",
    "food_tags": [
      "spaghetti",
      "pasta",
      "chicken",
      "crunchy",
      "fried",
      "greenwich"
    ]
  },
  {
    "food_name": "Lasagna Chicken Plate",
    "food_desc": "Our bestselling Lasagna Supreme with 1 pc. of fried Crunchy Chicken",
    "food_price": "165.00",
    "food_tags": [
      "lasagna",
      "pasta",
      "chicken",
      "crunchy",
      "fried",
      "greenwich"
    ]
  },
  {
    "food_name": "Overloaded Supreme Meal 2",
    "food_desc": "1 pc Jumbo Crunchy Chicken, 1/2 spaghetti, 1 cup rice, 1 solo Hawaiian OL (Options: Bacon OL, Exteme Cheese OL, Veggies & Cheese OL)",
    "food_price": "198.00",
    "food_tags": [
      "chicken",
      "cruncy",
      "fried",
      "spaghetti",
      "pasta",
      "rice",
      "pineapples",
      "bacon",
      "vegetables",
      "cheesy",
      "overload",
      "greenwich"
    ]
  },
  {
    "food_name": "Spaghetti Supreme Pan",
    "food_desc": "Our classic spaghetti in a pan best for potlucks, parties, or any barkada bonding.",
    "food_price": "286.00",
    "food_tags": [
      "spaghetti",
      "pasta",
      "sticky",
      "greenwich"
    ]
  },
  {
    "food_name": "Creamy Carbonara",
    "food_desc": "Our delightfully tasty, deliciously creamy pasta  in a pan best for potlucks, parties, or any barkada bonding.",
    "food_price": "462.00",
    "food_tags": [
      "tasty",
      "delicious",
      "creamy",
      "pasta",
      "carbonara",
      "greenwich"
    ]
  },
  {
    "food_name": "15-inch 4-in-1 Overload Pizza",
    "food_desc": "Our delicious Ultimate Overload, Hawaiian Overload, All Meat Overload and Pepperoni in one 15-inch freshly baked pizza!",
    "food_price": "626.00",
    "food_tags": [
      "overload",
      "pizza",
      "pineapples",
      "bacon",
      "meaty",
      "pepperoni",
      "mushrooms",
      "baked",
      "greenwich"
    ]
  },
  {
    "food_name": "Carbonara Chicken Plate",
    "food_desc": "Creamy Bacon Carbonara with 1 pc. Crunchy fried chicken",
    "food_price": "165.00",
    "food_tags": [
      "creamy",
      "bacon",
      "pasta",
      "carbonara",
      "crunchy",
      "fried",
      "chicken",
      "greenwich"
    ]
  },
  {
    "food_name": "Ham & Cheese",
    "food_desc": "Classic combination of ham and cheese",
    "food_price": "165.00",
    "food_tags": [
      "ham",
      "cheesy",
      "pizza",
      "greenwich"
    ]
  },
  {
    "food_name": "Potato Waves",
    "food_desc": "Crispy fried potato ridges lightly seasoned with garlic and herbs.",
    "food_price": "43.00",
    "food_tags": [
      "potato",
      "crispy",
      "deep fried",
      "flavoured",
      "greenwich"
    ]
  },
  {
    "food_name": "P599 Dealicious Duo",
    "food_desc": "1 Classic pizza and 1 OVERLOADED pizza for only P599",
    "food_price": "599.00",
    "food_tags": [
      "pizza",
      "cheesy",
      "overload",
      "meaty",
      "greenwich"
    ]
  },
  {
    "food_name": "Dippers",
    "food_desc": "Freshly fried bite-sized dough coated with cinnamon sugar and served with a chocolate dip",
    "food_price": "50.00",
    "food_tags": [
      "deep fried",
      "sweet",
      "chocolate",
      "dip",
      "fresh",
      "soft",
      "greenwich"
    ]
  },
  {
    "food_name": "Overloaded Supreme Meal 1",
    "food_desc": "2 pcs wings, 1 snack Lasagna Supreme, 1 solo Hawaiian OL (Options: Bacon OL, Exteme Cheese OL, Veggies & Cheese OL)",
    "food_price": "226.00",
    "food_tags": [
      "fried",
      "chicken",
      "chicken wings",
      "snack",
      "lasagna",
      "pasta",
      "pizza",
      "cheesy",
      "bacon",
      "pepperoni",
      "mushrooms",
      "meaty",
      "vegetables",
      "overload",
      "greenwich"
    ]
  },
  {
    "food_name": "2 pc. Crunchy Chicken Meal",
    "food_desc": "2 pcs. Crunchy fried chicken and a cup of rice",
    "food_price": "160.00",
    "food_tags": [
      "crunchy",
      "fried",
      "chicken",
      "rice",
      "greenwich"
    ]
  },
  {
    "food_name": "P499 Overloaded Trio",
    "food_desc": "3 9\" Double Pizzas (2 Hawaiian Overload, 1 Veggies & Cheese Overload)",
    "food_price": "499.00",
    "food_tags": [
      "pizza",
      "pineapples",
      "cheesy",
      "vegetables",
      "greenwich"
    ]
  },
  {
    "food_name": "Very Cheesy Macaroni Chicken Plate",
    "food_desc": "Very Cheesy Macaroni with 1 pc.  Crunchy fried chicken",
    "food_price": "165.00",
    "food_tags": [
      "cheesy",
      "pasta",
      "macaroni",
      "crunchy",
      "fried",
      "chicken",
      "greenwich"
    ]
  },
  {
    "food_name": "1 pc. Crunchy Chicken Meal",
    "food_desc": "Crunchy fried chicken and a cup of rice",
    "food_price": "194.00",
    "food_tags": [
      "crunchy",
      "fried",
      "chicken",
      "rice",
      "greenwich"
    ]
  },
  {
    "food_name": "Garlic Stix",
    "food_desc": "Freshly baked garlic-flavored bread sticks. Perfect with our delicious pastas.",
    "food_price": "32.00",
    "food_tags": [
      "bread",
      "sticks",
      "garlic",
      "flavoured",
      "baked",
      "greenwich"
    ]
  },
  {
    "food_name": "Pepperoni Overload",
    "food_desc": "Sumptuous pepperoni and cheese on crispy thin crust",
    "food_price": "241.00",
    "food_tags": [
      "pepperoni",
      "pizza",
      "crispy",
      "thin",
      "cheesy",
      "overload",
      "greenwich"
    ]
  },
  {
    "food_name": "Caramel Bites",
    "food_desc": "Caramel-drizzled, baked dessert.",
    "food_price": "147.00",
    "food_tags": [
      "caramel",
      "bites",
      "dessert",
      "baked",
      "sweet",
      "caramelised",
      "sticky",
      "greenwich"
    ]
  },
  {
    "food_name": "Classic Meal 2",
    "food_desc": "1 slice of Ham & Pineapples Pizza, 1 pc. Crunchy Chicken with Spaghetti, and 1 cup of rice.",
    "food_price": "154.00",
    "food_tags": [
      "pizza",
      "cheesy",
      "ham",
      "pineapples",
      "crunchy",
      "fried",
      "chicken",
      "pasta",
      "spaghetti",
      "rice",
      "greenwich"
    ]
  },
  {
    "food_name": "Wings & Waves",
    "food_desc": "Our Wacky Wings and Potato Waves together in one basket. Perfect with our pizzas!",
    "food_price": "164.00",
    "food_tags": [
      "potato",
      "crispy",
      "deep fried",
      "flavoured",
      "crispy",
      "flavorful",
      "chicken",
      "chicken wings",
      "greenwich"
    ]
  }
]